0036868553 16.8
0036032263 19.8
0036305377 8.7
0036968138 17.0
0036835022 11.1
0036481260 2.3
0036717778 7.9
0036549556 17.2
0036302943 9.6
0036205885 5.5
0036653947 14.7
0036466903 0.6
0036225241 13.9
0036535731 0.4
0036208233 20.2
0036567164 10.9
0036073830 9.9
0036399791 12.1
0036724871 17.4
0036379518 12.7
0036432828 14.4
0036223734 14.7
0036427783 24.0
0036630357 16.7
0036021865 15.5
0036214959 15.3
0036491594 22.6
0036769169 12.6
0036046603 23.8
0036868731 22.4
0036256293 3.9
0036122344 19.3
0036399903 6.8
0036980224 17.0
0036962392 9.0
0036235501 12.0
0036335258 6.6
0036935253 1.2
0036301959 0.1
0036210224 17.3
0036950683 13.4
0036499058 6.0
0036939257 18.5
0036472213 20.9
0036852774 16.1
0036046628 4.6
0036398891 13.1
0036931178 7.5
0036884765 10.1
0036184720 16.6
0036490484 21.6
0036459351 18.4
0036304175 3.7
0036909342 10.1
0036554407 5.2
0036692738 4.4
0036245199 5.2
0036481021 8.0
0036202354 6.0
0036716781 1.2
0036938357 0.5
0036103830 17.1
0036376088 22.9
0036162360 0.9
0036475122 13.5
0036915027 22.0
0036361525 1.4
0036487074 5.1
0036608722 3.7
0036328512 15.7
0036185304 13.4
0036458547 13.3
0036891669 1.0
0036921409 21.3
0036015791 11.1
0036446507 4.6
0036249782 0.5
0036183851 0.8
0036052421 19.6
0036287035 16.4
0036980086 12.0
0036686180 13.1
0036991324 3.9
0036464022 19.2
0036728822 1.5
0036131811 6.3
0036369414 21.7
0036967139 16.1
0036465579 20.8
0036472476 8.3
0036398512 16.5
0036015013 19.2
0036929712 15.5
0036821492 13.1
0036068565 20.7
0036761536 20.3
0036895174 18.3
0036765689 16.0
0036182064 14.4
0036199138 9.3
0036057016 8.4
0036490600 5.7
0036374110 14.2
0036833257 23.5
0036065971 9.2
0036662883 0.5
0036852455 1.5
0036223216 7.8
0036849751 8.6
0036261482 8.2
0036602935 7.0
0036380268 8.1
0036773790 0.7
0036695452 3.6
0036135433 3.9
0036988780 7.7
0036075258 2.1
0036587857 22.6
0036880700 0.7
0036445738 13.7
0036266428 12.3
0036578140 2.0
0036138230 3.9
0036242993 18.5
0036922641 1.3
