0036985227 22.3
0036432349 18.9
0036299146 23.4
0036427783 11.1
0036493878 16.9
0036739697 14.4
0036868923 4.8
0036694754 3.4
0036335258 9.1
0036188979 20.7
0036603315 13.2
0036770143 7.7
0036830890 9.7
0036231890 13.9
0036458547 4.9
0036765689 9.0
0036051372 8.3
0036756171 13.9
0036477515 17.8
0036215455 17.8
0036849080 23.4
0036304875 17.0
0036235501 3.5
0036591158 4.4
0036028963 4.0
0036931995 10.8
0036662883 7.9
0036922641 11.2
0036876165 20.8
0036567164 15.1
0036628223 13.0
0036472476 18.0
0036292111 10.2
0036245199 19.4
0036880700 20.1
0036921409 6.8
0036912900 20.8
0036363066 7.1
0036594150 1.1
0036490600 15.9
0036950755 1.4
0036632817 3.4
0036708071 2.1
0036686263 1.2
0036729624 4.2
0036210224 4.2
0036591090 20.9
0036052421 18.2
0036857966 22.9
0036000242 12.4
0036964235 18.5
0036686180 22.0
0036205885 23.3
0036447723 2.3
0036024069 7.9
0036261482 17.0
0036517390 20.6
0036374388 10.1
0036722555 13.9
0036526653 13.6
0036543423 19.0
0036069013 22.8
0036694017 3.1
0036015791 23.7
0036938357 5.2
0036424798 1.1
0036960169 14.8
0036935253 17.4
0036161122 5.5
0036068565 22.5
0036185195 3.9
0036468590 3.7
0036498042 20.4
0036484280 8.0
