0036950683 13.9
0036566906 6.8
0036488932 6.7
0036510725 6.8
0036742787 0.8
0036245199 4.5
0036608722 21.4
0036135884 11.1
0036859199 6.2
0036473710 12.4
0036065971 19.3
0036267383 12.9
0036073830 15.3
0036863240 6.0
0036716781 3.9
0036075101 1.2
0036868553 22.5
0036601056 16.2
0036292111 21.9
0036837814 13.4
0036852774 8.4
0036318764 7.5
0036183138 10.5
0036484280 15.5
0036493878 2.1
0036074630 1.8
0036021634 22.2
0036617629 16.0
0036884765 23.0
0036763626 14.1
0036765689 14.0
0036852896 18.5
0036843118 13.8
0036379518 11.4
0036231890 20.0
0036432349 20.3
0036686263 5.7
0036288439 22.4
0036742926 10.1
0036086875 8.6
0036763231 4.2
0036070714 6.2
0036617051 10.2
0036087566 18.1
0036909342 0.3
0036025374 4.6
0036883230 15.1
0036506758 5.8
0036505013 11.4
0036447723 10.8
0036733154 21.6
0036483258 13.1
0036205574 4.7
0036477515 20.3
0036387634 10.4
0036000324 22.0
0036057016 0.4
0036830890 8.2
0036578199 19.7
0036660426 13.6
0036351075 18.2
0036369414 11.4
0036931178 21.1
0036720148 16.0
0036131811 19.6
0036700603 20.1
0036095398 3.4
0036134647 17.6
0036312466 22.9
0036135782 18.1
0036517390 5.0
0036769169 13.7
0036467212 9.6
0036946884 19.3
0036207476 14.2
0036236443 2.8
0036852352 17.3
0036398512 13.6
0036686180 22.2
0036210224 7.1
0036125925 6.6
0036390343 17.5
0036960169 5.9
0036880700 10.6
0036512729 0.5
0036853210 1.7
0036532715 6.4
