0036960169 18.3
0036379518 17.5
0036858565 10.6
0036742787 12.5
0036086875 23.9
0036852455 19.3
0036632817 7.8
0036696953 16.4
0036000242 4.2
0036619539 9.8
0036299146 13.2
0036499355 3.3
0036217536 23.1
0036428149 0.1
0036245199 8.3
0036415904 17.3
0036763626 13.6
0036318764 20.7
0036630357 9.2
0036672603 23.2
0036256293 20.8
0036031042 16.3
0036527647 10.8
0036324980 23.4
0036441205 1.6
0036138230 0.9
0036249782 0.2
0036032263 15.6
0036096944 1.1
0036185195 17.3
0036843118 3.4
0036522612 12.2
0036939257 22.7
0036432828 9.4
0036655184 10.9
0036068565 7.0
0036484280 11.4
0036042151 12.4
0036225241 13.3
0036891486 20.0
0036096945 4.4
0036288439 0.7
0036182585 2.9
0036103830 13.7
0036321450 2.1
0036256208 24.0
0036183851 21.5
0036374110 0.8
0036335258 8.4
0036177293 8.6
0036617629 15.8
0036444373 0.1
0036733521 16.2
0036178046 6.2
0036694754 6.3
0036022006 21.0
0036208233 4.3
0036742782 16.9
0036472476 18.0
0036362843 14.1
0036897428 18.6
0036761536 22.2
0036896083 18.0
0036991085 3.0
0036595790 15.6
0036953603 0.9
0036174971 2.1
0036179367 2.8
0036266511 20.7
0036046603 21.0
0036467201 3.8
0036142314 16.5
0036978499 22.4
0036686472 20.0
0036849080 20.5
0036541716 8.4
0036467212 0.5
0036095398 15.5
0036950683 7.5
0036909397 0.5
0036607582 9.0
0036705668 1.2
0036086364 20.2
0036924294 7.2
0036979963 2.1
