0036419869 3.5
0036158121 0.2
0036611648 6.6
0036024069 14.7
0036931178 17.4
0036415904 12.3
0036967139 10.6
0036432349 10.1
0036119921 17.0
0036167940 5.3
0036302943 22.6
0036383247 19.2
0036046628 4.7
0036361525 12.6
0036964235 14.2
0036465579 9.4
0036086364 2.6
0036052348 23.2
0036591090 12.7
0036931995 6.5
0036595790 1.3
0036182585 8.5
0036934067 14.4
0036960960 18.5
0036696953 1.9
0036369414 24.0
0036987587 15.4
0036223734 10.6
0036287035 4.0
0036939257 18.6
0036024879 23.3
0036938357 22.8
0036922641 22.8
0036256293 20.8
0036557377 15.5
0036284693 11.1
0036096945 21.5
0036225241 9.0
0036849751 17.1
0036052421 7.9
0036779972 12.4
0036729624 6.2
0036884765 3.7
0036484280 4.5
0036178721 7.0
0036441989 1.0
0036947144 13.3
0036174971 22.7
0036617629 16.7
0036464022 17.6
0036777613 1.0
0036210224 7.1
0036205885 21.6
0036653947 21.9
0036292111 15.9
0036398512 19.1
0036785319 3.8
0036934795 7.3
0036828556 2.4
0036015791 7.6
0036096944 9.7
0036950755 5.3
0036720148 2.4
0036399903 18.1
0036935253 17.2
0036134647 11.2
0036660426 2.2
0036695452 9.9
0036733521 13.7
0036051904 1.3
0036177293 2.0
0036022006 1.9
0036601056 6.0
0036979963 3.8
0036015013 14.2
0036739697 8.8
0036988780 17.7
0036694017 11.2
0036880700 11.6
0036566772 21.9
