0036779972 0.7
0036482534 9.6
0036087566 17.0
0036950755 5.2
0036947144 23.7
0036891486 15.3
0036499355 11.4
0036591158 22.2
0036934473 10.5
0036214959 10.6
0036717208 20.4
0036591090 2.5
0036446507 12.8
0036011305 7.8
0036539757 2.7
0036444373 1.6
0036931178 4.5
0036447723 15.8
0036208233 11.8
0036015013 7.8
0036202354 16.8
0036717778 10.5
0036361525 5.9
0036964235 15.2
0036981839 10.5
0036950683 18.7
0036876165 19.1
0036697549 3.5
0036532715 8.7
0036896083 1.7
0036966196 12.4
0036458547 5.2
0036739697 5.6
0036312466 11.4
0036535731 9.1
0036686472 18.7
0036773790 15.0
0036554407 0.4
0036912900 6.8
0036686180 20.2
0036162360 21.0
0036431635 12.2
0036199138 23.2
0036502754 23.3
0036662883 9.6
0036960169 2.8
0036985227 5.5
0036499988 14.6
0036369414 18.8
0036271420 17.9
0036358295 17.5
0036924294 24.0
0036603315 3.6
0036118545 2.0
0036417974 8.1
0036459351 10.4
0036068565 2.1
0036566772 9.3
0036588904 16.0
0036909342 16.3
0036526653 15.9
0036692738 22.9
0036467201 9.2
0036236443 0.3
0036944776 8.0
0036952710 13.8
0036527647 1.1
0036859199 1.0
0036833257 15.0
0036372925 22.3
0036125925 23.7
0036398512 20.6
0036473710 5.6
0036852352 8.5
0036304175 21.0
0036220105 18.4
0036263559 6.0
0036335258 4.5
0036915027 13.6
0036031042 22.7
0036903781 11.2
0036231702 0.5
0036052421 6.9
0036733521 15.4
0036653947 10.9
0036096944 15.6
0036769169 6.5
0036632817 10.9
0036798775 1.8
0036063984 1.4
0036416806 5.7
0036135782 14.5
0036835698 16.7
0036097997 4.2
0036728822 11.8
0036007181 17.2
0036190577 4.2
0036923779 10.0
0036623298 16.7
0036308071 20.2
0036390343 14.3
0036708071 16.1
0036578199 18.3
0036205885 22.3
0036256293 6.3
0036763231 0.5
0036887451 21.5
0036085085 3.0
0036868731 7.1
0036959023 12.4
0036968138 16.7
0036724871 5.6
0036821492 12.4
0036380268 3.4
0036245199 20.2
