0036976287 10.8
0036778837 6.5
0036855522 17.7
0036765561 10.1
0036317628 5.9
0036716287 6.0
0036435974 21.3
0036607240 23.0
0036692710 21.1
0036480229 1.4
0036545005 0.9
0036048381 9.4
0036853844 4.6
0036717266 6.0
0036873706 3.4
0036189505 17.3
0036312621 2.4
0036820774 14.4
0036189441 17.4
0036477299 20.3
0036223360 10.3
0036502579 8.5
0036265644 13.9
0036932328 20.1
0036032630 11.3
0036299550 22.7
0036301920 20.9
0036878881 7.2
0036266319 19.4
0036537883 10.6
0036304922 20.7
0036187462 13.3
0036883574 16.1
0036177932 7.7
0036719859 3.9
0036443702 7.3
0036451978 1.1
0036635833 16.8
0036302877 3.9
0036523284 6.0
0036404541 13.0
0036814917 19.0
0036893918 2.9
0036206232 11.4
0036529851 4.7
0036691604 20.9
0036980889 7.0
0036173809 12.7
0036484679 22.2
0036784443 20.8
0036371132 2.4
0036800544 2.5
0036855451 7.2
0036728729 15.2
0036040468 0.9
0036452803 5.0
0036512848 19.0
0036343648 8.6
0036039716 7.0
0036992767 9.7
0036487069 11.3
0036499888 13.6
0036055763 23.0
0036876710 6.5
0036460714 9.5
0036983399 3.1
0036150217 16.5
0036386304 21.5
0036430849 18.6
0036841268 3.6
0036967348 2.1
0036449792 5.8
0036328649 9.9
0036684773 22.7
0036805649 20.0
0036445066 3.0
0036486714 20.8
0036611269 22.5
0036616918 19.7
0036236502 20.4
