0036750405 4.3
0036463781 6.9
0036207260 14.1
0036732317 8.1
0036838806 20.7
0036328649 3.6
0036494503 11.6
0036784921 13.5
0036582220 6.7
0036602214 0.0
0036692710 11.9
0036019863 5.9
0036546893 11.6
0036856708 3.8
0036243055 3.9
0036986191 11.4
0036188586 17.5
0036563868 2.3
0036253612 22.9
0036745355 19.3
0036999764 18.9
0036339612 14.3
0036967348 12.6
0036201058 1.7
0036691604 8.9
0036443702 9.0
0036564663 8.1
0036039716 1.9
0036188254 9.9
0036041128 0.3
0036805431 10.5
0036345871 2.6
0036466584 11.4
0036635833 0.1
0036286079 6.6
0036450455 13.3
0036442065 5.6
0036635970 23.1
0036717266 0.0
0036063644 1.1
0036435992 9.7
0036486546 7.1
0036311775 2.5
0036661338 22.2
0036568740 14.8
0036718806 14.4
0036728729 5.6
0036991561 19.1
0036856120 4.8
0036530474 22.4
0036122318 16.1
0036005936 22.9
0036688314 3.8
0036313369 8.4
0036015032 2.8
0036205663 18.8
0036417902 11.2
0036290796 15.9
0036486714 19.2
0036177932 19.9
0036481678 2.8
0036236502 17.9
0036255477 21.7
0036762035 12.9
0036484679 7.9
0036986517 1.4
0036030805 13.6
0036716287 4.2
0036992767 23.8
0036371132 22.2
0036769095 17.7
