0036030805 12.3
0036486546 15.8
0036567605 20.1
0036704402 12.1
0036743477 1.7
0036189130 5.3
0036127582 6.2
0036751759 0.9
0036311775 17.4
0036307041 11.4
0036117896 14.8
0036696203 10.1
0036253612 9.1
0036176039 4.7
0036840759 8.6
0036577489 16.8
0036207260 2.7
0036479329 17.5
0036348643 6.5
0036120183 22.3
0036474267 6.6
0036042964 8.2
0036230122 2.7
0036320637 20.8
0036904531 20.9
0036524979 20.7
0036856708 23.1
0036326950 9.3
0036029802 5.5
0036463781 1.6
0036660938 16.6
0036839693 15.0
0036804955 8.7
0036383598 6.2
0036804739 17.1
0036978596 7.9
0036532868 14.0
0036614443 5.9
0036020785 3.4
0036886818 20.8
0036360454 19.5
0036756979 6.9
0036729857 7.6
0036688314 22.5
0036001295 12.0
0036619448 10.3
0036105590 18.4
0036908704 7.4
0036005936 18.3
0036679141 7.8
0036085705 14.2
0036307966 1.4
0036366624 10.7
0036564663 12.3
0036935661 20.1
0036391456 3.5
0036096320 3.8
0036298915 3.5
0036317774 7.1
0036044034 9.4
0036403320 24.0
0036999764 9.7
0036391210 4.2
0036661338 21.3
0036181963 21.5
0036626084 13.1
0036209472 4.4
0036656932 4.4
0036310112 8.0
0036988308 11.0
0036239294 8.8
0036232855 23.2
0036376102 8.1
0036328120 19.2
