0036500018 17.6
0036745355 9.4
0036643685 10.0
0036487570 23.8
0036762035 21.9
0036709827 12.5
0036791462 6.6
0036836801 21.0
0036326893 20.5
0036384710 6.6
0036575976 20.4
0036858548 11.2
0036022658 6.7
0036023376 5.3
0036414537 7.4
0036276021 4.5
0036528011 6.4
0036654651 16.4
0036767067 9.0
0036685447 17.6
0036398536 20.0
0036857434 12.0
0036659619 14.1
0036952822 15.3
0036704667 2.9
0036155159 22.1
0036656839 6.8
0036074909 19.7
0036536665 12.7
0036616393 20.8
0036332706 0.9
0036552385 4.4
0036819402 6.2
0036847706 2.0
0036448134 1.9
0036127049 7.4
0036850374 16.9
0036720610 8.4
0036676845 1.9
0036699017 6.8
0036666266 13.0
0036205663 23.8
0036732317 19.8
0036535102 23.1
0036810114 9.0
0036188586 8.0
0036363810 3.0
0036936552 23.2
0036739052 0.5
0036542946 3.2
0036342752 13.0
0036856120 12.3
0036481678 15.9
0036534749 14.0
0036020385 10.0
0036665018 19.2
0036504874 4.3
0036280547 9.8
0036601852 0.5
0036448307 10.5
0036991561 8.2
0036378358 7.1
0036445218 3.9
0036273252 0.5
0036174269 6.5
0036546885 18.5
0036229718 4.8
0036450455 22.3
0036466584 2.9
0036445180 6.6
0036964681 18.9
0036509555 4.5
0036828860 23.2
0036596313 17.1
0036546528 4.4
0036193481 21.5
0036682944 19.5
0036559467 12.9
0036123572 10.2
0036857416 16.8
0036555466 15.5
0036417902 8.6
