0036332060 10.6
0036546528 22.2
0036552385 12.7
0036858548 20.6
0036580730 21.9
0036435974 10.7
0036011915 4.0
0036048381 13.2
0036983399 16.4
0036847706 3.7
0036476177 5.8
0036403320 3.1
0036607240 12.3
0036850374 0.4
0036044034 10.2
0036886818 13.8
0036201058 17.2
0036070856 17.5
0036484679 9.1
0036805649 9.3
0036934125 10.9
0036449181 16.9
0036986517 19.9
0036167019 22.1
0036036177 13.6
0036287922 15.3
0036964681 1.0
0036158094 16.5
0036563868 18.5
0036841018 7.9
0036714068 17.7
0036659619 14.3
0036326893 16.3
0036391210 12.7
0036015032 16.3
0036666266 18.1
0036451978 4.7
0036539505 4.8
0036464909 16.5
0036684773 9.5
0036988983 21.2
0036828860 15.5
0036947807 15.3
0036923408 7.0
0036858801 14.3
0036339612 16.1
0036430849 0.5
0036290796 0.7
0036464351 5.6
0036751759 11.1
0036545005 4.6
0036223360 12.4
0036487069 4.4
0036299550 20.9
0036032630 6.6
0036288399 1.3
0036743477 4.7
0036855522 11.3
0036196177 14.0
0036380879 7.4
0036819402 20.5
0036209472 11.1
0036549184 13.2
0036582220 3.2
0036978596 1.5
0036144663 15.0
0036302877 2.5
0036368258 7.8
0036685447 15.9
0036932328 23.7
0036925085 13.8
0036504874 5.1
0036814917 2.2
0036020385 11.5
0036474267 11.2
0036384710 19.9
0036728729 22.2
0036992767 17.0
0036063644 3.3
0036709827 9.5
0036177932 20.9
0036237752 8.6
0036633779 2.2
0036205663 3.6
0036380988 17.1
0036802340 8.9
0036838806 1.0
0036363810 14.9
0036127049 12.2
0036497215 12.7
0036745355 18.5
0036840759 18.0
0036676845 9.5
0036639131 20.5
0036117837 12.8
0036165725 16.6
0036378353 5.1
0036878881 22.9
0036082508 6.8
0036654651 21.6
0036138342 5.4
0036020785 23.1
0036445180 18.9
0036499834 21.5
0036239294 14.1
0036127582 8.6
0036024547 4.9
0036449792 7.6
0036562508 8.3
0036348643 17.5
0036181963 5.1
0036856120 18.4
0036904712 10.4
0036058560 8.5
0036716287 3.9
0036849533 1.5
0036460714 0.9
0036791892 19.5
0036207260 3.9
0036425263 5.1
0036041128 22.6
0036933810 6.1
0036074028 5.0
0036720610 7.5
0036109274 7.1
0036348849 7.9
0036534749 3.2
0036706366 12.8
0036298915 14.8
0036719859 4.4
0036463781 20.2
0036079719 4.9
0036908704 1.1
0036279107 5.6
0036464505 18.1
0036555466 4.4
0036236502 20.1
0036019863 9.1
0036717266 2.6
