0036178145 11.1
0036473351 17.5
0036904531 4.0
0036174269 18.4
0036450455 18.4
0036265644 3.5
0036962898 15.2
0036691604 2.2
0036176039 11.8
0036340126 24.0
0036532868 6.9
0036635970 0.3
0036497244 13.2
0036936552 0.5
0036900460 13.0
0036602214 4.2
0036085705 7.0
0036436697 3.4
0036727924 19.0
0036594390 9.0
0036635833 16.5
0036023376 7.3
0036571041 17.9
0036187462 23.5
0036426634 21.7
0036893918 4.7
0036273252 0.5
0036718806 4.6
0036310112 9.8
0036575976 0.3
0036559467 21.8
0036018209 12.8
0036682655 3.7
0036378062 11.7
0036873706 12.2
0036601852 15.3
0036117896 0.4
0036529851 9.2
0036765561 11.0
0036415831 12.0
0036785350 4.8
0036317628 6.8
0036767067 15.0
0036312621 15.4
0036019533 22.7
0036810114 6.3
0036030805 10.7
0036890465 8.9
0036883574 11.0
0036688314 7.8
0036414537 1.1
0036952822 14.8
0036805431 12.1
0036546893 8.0
0036643685 23.2
0036889742 4.7
0036804955 2.6
0036445066 17.6
0036383598 1.6
0036567605 24.0
0036180704 22.2
0036007079 24.0
0036611269 13.7
0036536665 18.1
0036656839 8.7
0036729857 5.1
0036122084 6.3
0036367290 0.5
0036750074 2.4
0036345871 18.5
0036656932 22.6
