0036473808 3.7
0036286079 21.8
0036665018 17.4
0036377260 2.2
0036164471 3.5
0036976287 6.7
0036538894 5.7
0036481812 5.4
0036307966 4.6
0036294713 8.0
0036424217 16.8
0036805347 9.2
0036114518 10.7
0036856708 11.8
0036485064 4.6
0036230122 17.0
0036487570 1.4
0036524979 19.3
0036435992 19.7
0036122318 3.1
0036288004 6.8
0036967348 6.8
0036918647 4.5
0036001295 12.7
0036178084 1.7
0036769095 22.5
0036784443 20.2
0036276021 3.0
0036934089 8.0
0036512848 14.1
0036800544 1.5
0036616918 18.3
0036123572 7.9
0036120183 3.4
0036005936 24.1
0036393993 12.4
0036546885 17.3
0036500018 8.4
0036443702 2.7
0036738701 19.1
0036477299 14.9
0036741821 4.8
0036614443 6.6
0036947241 0.2
0036378358 10.4
0036311775 3.3
0036074909 20.1
0036641430 14.5
0036552691 16.9
0036616393 11.4
0036155159 14.8
0036188254 6.7
0036211680 8.3
0036480229 17.0
0036974876 17.7
0036577489 5.6
0036704667 8.3
0036692710 14.3
0036042964 19.5
0036566248 8.0
0036980889 16.8
0036467768 20.0
0036003035 20.3
0036699017 6.9
0036232855 0.6
0036841268 19.4
0036189505 13.7
0036791462 22.4
0036446418 10.1
0036340018 12.3
0036857416 5.9
0036756979 8.9
