Hyp#Q10#Q20#Q30#Q40#Q50#Q60#Q70#Q80#Q90
001#13.06#29.4#49.81#62.58#104.72#131.09#159.14#180.64#199.48
002#19.62#35.35#60.49#82.93#114.57#132.45#150.88#170.72#198.91
003#14.56#38.7#66.14#95.7#111.3#143.78#165.79#180.92#206.67
004#25.98#49.0#74.33#93.95#121.92#139.46#157.65#172.74#196.1
005#13.81#50.76#76.18#98.33#121.75#134.78#149.77#165.42#201.21
006#22.84#38.19#56.74#76.31#100.32#122.99#143.99#165.22#191.5
007#22.02#50.89#72.51#87.63#116.43#140.44#160.52#184.85#205.7
008#34.86#49.13#73.4#88.9#113.1#130.87#151.55#158.6#185.51
009#18.54#39.28#60.1#80.88#102.96#127.89#148.36#166.78#192.23
010#11.29#38.36#65.09#92.07#109.66#128.06#149.6#183.15#202.4
011#19.13#42.73#61.55#78.96#105.31#128.11#156.49#181.07#197.73
012#20.19#41.19#58.94#83.28#106.62#127.18#144.04#162.45#199.69
013#16.58#52.83#76.85#98.19#109.1#126.29#146.5#173.34#202.72
014#24.52#50.0#71.88#91.92#114.96#132.04#154.73#174.0#198.74
015#19.34#52.44#68.37#98.93#114.16#133.06#159.1#177.98#195.84
016#19.79#32.79#63.2#89.17#114.84#135.24#155.35#177.11#201.03
017#32.9#53.4#71.51#96.51#124.61#142.75#162.73#182.38#197.3
018#26.25#41.57#59.27#74.44#97.22#119.61#140.4#166.65#194.46
019#17.27#41.61#60.01#75.09#106.24#130.59#161.07#181.8#201.81
020#28.89#50.7#83.86#106.38#123.63#144.69#164.33#179.55#210.11
021#25.54#51.28#77.88#95.88#122.89#139.3#161.08#181.92#196.09
022#15.59#29.42#50.79#75.87#95.08#121.82#143.45#168.82#190.65
023#25.04#44.0#67.14#90.67#111.31#135.05#150.28#168.34#185.07
024#24.35#45.42#69.99#93.77#115.97#143.63#164.11#179.53#201.57
025#15.7#41.74#68.33#86.64#117.96#135.57#159.52#179.78#197.49
026#17.88#33.66#48.9#70.76#100.87#123.2#148.1#173.97#197.36
027#29.86#55.38#76.47#93.33#116.52#145.44#162.42#180.57#200.98
028#24.88#50.65#67.69#87.92#100.15#125.91#150.79#168.5#192.23
029#16.97#36.6#53.8#77.29#96.03#112.59#135.36#157.06#187.17
030#13.58#34.45#62.81#92.21#113.32#122.94#144.76#160.62#195.12
031#22.08#43.51#62.14#84.96#100.68#113.48#144.34#177.42#196.42
032#12.16#25.15#44.23#69.0#107.35#129.23#160.12#170.67#195.37
033#15.63#25.69#64.88#81.66#99.4#134.56#153.86#183.86#202.82
034#19.85#42.73#61.53#83.16#109.46#128.55#158.82#184.09#197.96
035#18.46#43.6#54.52#74.42#103.66#123.48#154.64#172.55#195.3
036#27.57#45.51#65.94#86.92#111.99#129.58#158.01#172.76#196.83
037#14.94#46.7#64.9#84.23#112.79#131.14#148.59#174.26#191.46
038#17.0#45.59#64.98#83.08#110.35#135.84#146.3#169.18#188.58
039#21.78#55.94#80.5#97.51#114.75#130.07#156.99#181.67#206.48
040#32.85#55.86#86.11#98.01#113.77#127.88#154.23#179.1#197.01
041#14.65#41.82#58.73#82.15#98.15#119.61#142.21#162.77#195.66
042#18.27#40.23#51.77#72.95#85.77#122.12#139.65#168.32#200.49
043#26.52#42.66#59.32#81.55#111.5#133.99#156.48#175.36#208.07
044#17.5#36.5#58.09#82.58#97.18#123.04#152.09#180.14#192.62
045#14.73#46.29#65.28#86.28#108.13#135.76#153.6#179.33#197.27
046#21.56#42.66#63.59#85.19#117.86#127.34#158.0#175.27#196.8
047#22.47#41.62#69.52#82.74#107.81#132.86#155.43#173.62#195.41
048#16.28#36.34#68.27#91.96#122.72#137.46#158.68#182.99#201.93
049#12.76#34.87#57.76#77.41#102.14#132.7#157.5#177.37#194.1
050#15.53#37.0#52.2#87.62#100.11#119.72#144.33#164.9#188.01
051#14.33#35.01#52.96#80.18#106.17#128.23#151.64#170.56#196.05
052#12.63#37.98#62.18#86.0#99.5#121.05#160.36#177.23#192.69
053#19.92#33.6#52.11#76.42#99.92#122.46#144.95#176.58#194.21
054#28.43#49.05#66.98#86.07#118.71#135.48#153.02#168.07#196.29
055#16.36#35.82#55.58#79.4#104.2#122.28#142.66#163.34#202.51
056#13.97#30.08#56.56#90.31#115.92#140.79#155.22#166.75#192.24
057#15.2#38.72#59.92#88.3#111.58#129.44#150.61#179.97#201.07
058#21.71#40.99#60.85#75.15#98.79#119.81#159.49#182.51#197.24
059#18.4#48.72#70.78#99.44#115.85#134.9#148.61#168.77#196.4
060#17.91#34.32#58.67#77.83#103.73#132.01#152.51#170.41#199.86
061#27.08#48.35#72.51#87.14#108.68#130.81#155.74#190.0#202.29
062#28.02#47.14#71.7#92.5#112.8#133.93#156.13#180.1#200.24
063#21.79#35.57#53.59#88.99#114.3#138.16#158.6#185.47#203.86
064#24.38#38.44#56.41#71.54#97.28#120.28#137.14#160.51#188.96
065#16.64#36.83#65.9#80.76#98.83#119.67#148.26#183.41#200.63
066#20.52#42.37#69.49#86.67#102.87#125.3#141.84#166.07#196.29
067#18.4#32.41#55.12#85.84#113.81#141.08#160.78#182.88#204.41
068#22.71#40.05#67.11#92.6#118.55#136.54#161.33#176.82#203.35
069#24.66#44.15#68.44#99.52#118.27#144.16#160.09#178.83#199.28
070#19.57#46.29#66.97#90.58#107.46#134.55#155.56#172.9#202.21
071#22.13#39.62#60.83#79.72#95.09#111.78#131.64#150.09#185.05
072#20.15#42.56#57.93#93.71#115.7#131.93#150.63#177.99#192.39
073#18.7#40.65#66.51#93.88#114.04#130.2#154.39#175.23#191.31
074#21.69#55.44#64.45#77.01#98.01#116.82#143.13#179.81#201.71
075#23.12#45.64#62.61#75.63#108.24#137.28#161.58#191.69#206.1
076#10.87#32.01#59.19#83.08#98.09#123.81#144.77#176.65#196.94
077#11.93#34.32#62.2#81.38#113.33#136.26#154.35#172.52#194.2
078#11.7#36.65#55.47#85.25#110.74#136.23#159.72#173.74#194.44
079#11.83#40.0#59.47#80.92#106.22#134.98#150.58#174.41#196.98
080#28.28#60.09#81.15#96.74#112.32#136.95#162.43#177.9#197.4
081#23.51#39.93#59.16#78.84#98.86#114.39#136.17#166.95#191.7
082#25.49#39.27#61.4#77.08#100.37#141.64#156.86#177.48#193.07
083#24.33#46.9#62.9#73.99#102.2#119.76#152.88#170.64#204.91
084#24.99#50.58#78.32#103.5#126.15#147.16#168.3#187.75#203.37
085#15.84#34.27#64.87#89.75#111.44#130.94#149.17#170.58#187.04
086#30.1#43.28#65.1#92.23#118.5#134.92#165.1#182.28#205.94
087#23.29#46.32#69.18#81.23#94.13#119.76#141.17#162.23#192.23
088#16.64#37.24#55.24#93.65#114.0#128.25#153.14#183.25#198.67
089#17.51#42.03#70.0#86.47#99.52#116.81#132.04#161.16#195.13
090#16.55#29.64#57.94#79.71#102.88#124.34#147.62#170.85#194.23
091#20.88#42.8#67.05#92.32#120.12#138.55#156.99#179.23#202.03
092#6.79#23.14#62.18#89.11#112.47#139.03#165.12#182.86#201.36
093#9.1#33.72#51.07#66.66#80.13#99.61#124.31#155.44#192.66
094#29.04#53.63#75.12#96.5#118.07#136.32#152.73#169.51#192.54
095#12.97#43.56#63.6#92.45#112.7#130.49#150.4#184.28#202.1
096#11.08#23.91#49.56#64.22#79.48#120.65#149.25#170.2#195.75
097#27.29#48.28#74.33#95.7#108.89#123.36#152.88#170.3#190.38
098#15.77#46.77#59.27#80.4#107.25#134.05#156.91#168.73#197.14
099#19.28#35.56#43.32#76.55#104.42#123.84#146.22#164.88#199.24
100#19.89#41.74#75.25#96.81#113.61#134.7#163.69#181.63#196.69
101#22.15#46.12#75.75#90.6#110.59#134.22#160.31#180.11#204.2
102#14.63#46.79#80.37#98.09#125.46#148.63#164.95#179.57#203.35
103#29.97#49.15#66.38#100.24#118.29#142.02#155.75#173.53#199.21
104#19.62#54.24#78.65#91.23#110.53#128.06#145.38#160.27#194.05
105#21.53#46.14#73.91#93.43#110.17#148.89#174.95#186.46#208.22
106#11.78#36.79#50.34#73.12#105.81#122.59#148.35#168.26#190.34
107#30.88#52.71#75.11#93.29#110.38#123.76#149.75#175.25#199.01
108#25.8#48.21#73.58#93.28#104.16#129.42#154.47#175.77#192.95
109#14.6#40.16#60.93#76.78#97.4#121.17#150.29#168.32#200.66
110#16.93#41.5#58.2#81.01#105.34#134.98#165.54#182.18#197.15
111#26.06#57.2#72.85#93.35#110.36#136.12#160.61#176.46#198.96
112#33.6#56.27#76.25#95.96#117.63#139.36#163.34#182.49#202.73
113#20.15#52.55#66.27#78.1#94.47#128.32#145.8#171.02#197.71
114#25.72#45.18#76.21#103.43#116.63#131.56#147.81#168.89#190.97
115#20.52#49.25#70.3#97.46#110.16#135.0#155.47#178.71#196.61
116#21.78#40.48#60.8#85.12#99.74#122.2#147.99#174.71#192.43
117#13.43#34.37#66.31#85.74#105.91#134.94#150.54#169.33#197.95
118#21.18#40.62#61.01#98.36#123.44#138.87#154.66#178.38#201.21
119#14.8#31.96#55.28#84.96#115.09#128.82#163.84#185.66#203.96
120#13.23#44.75#68.21#98.21#121.46#142.55#158.53#180.22#203.73
121#26.67#45.06#67.95#91.85#117.09#125.53#155.13#178.28#196.74
122#22.17#42.21#69.82#92.58#102.55#123.47#151.16#172.42#192.95
123#16.83#31.18#51.92#79.55#105.8#124.94#151.3#177.1#199.69
124#20.03#46.53#62.75#85.28#99.05#129.42#142.78#174.7#194.93
125#23.36#34.28#62.76#87.42#101.93#127.74#142.15#169.6#198.61
126#16.67#42.53#60.93#81.28#96.41#111.77#136.89#163.35#190.74
127#30.68#55.74#84.6#100.68#128.32#139.37#159.1#177.25#195.6
128#17.98#37.75#60.2#72.34#92.11#107.72#130.61#157.29#183.87
129#18.55#35.25#60.25#73.32#95.33#110.76#131.3#154.33#178.79
130#20.48#47.73#77.21#101.28#123.24#138.18#153.4#172.03#189.87
131#20.19#34.1#60.39#90.96#111.48#124.89#147.1#165.97#192.37
132#12.78#34.77#57.6#93.45#110.68#127.96#151.14#166.12#187.29
133#24.32#38.41#61.52#77.43#98.28#131.18#154.46#180.8#195.69
134#20.89#48.48#65.57#89.25#107.79#135.44#149.53#162.39#201.63
135#23.24#44.56#62.33#81.44#111.16#144.34#161.52#185.0#205.25
136#15.78#37.76#59.88#79.24#100.49#134.93#157.37#175.39#188.0
137#22.91#43.96#63.21#83.88#109.74#130.32#149.12#172.61#193.32
138#18.84#43.05#70.18#96.4#116.78#140.22#157.34#174.3#194.13
139#14.97#35.9#66.14#90.72#109.37#129.45#155.9#177.53#198.0
140#24.48#48.67#69.44#87.48#103.2#121.51#148.55#174.08#198.17
141#19.09#45.62#59.6#82.52#101.39#128.96#148.54#169.51#202.46
142#12.8#30.59#57.89#81.64#103.19#121.66#145.63#171.92#197.19
143#17.06#38.28#64.83#79.58#95.7#125.27#150.19#178.63#193.56
144#23.81#51.94#73.89#90.25#111.55#131.32#145.0#170.86#192.47
145#15.02#36.57#59.26#78.39#93.93#118.88#136.97#173.42#201.3
146#21.11#51.43#69.94#91.57#104.91#127.05#155.25#167.07#196.13
147#20.97#38.26#61.0#79.43#101.08#121.8#145.89#171.72#194.86
148#12.18#31.96#61.24#77.93#95.52#120.93#142.18#162.39#193.63
149#21.02#51.94#76.83#97.47#118.41#144.3#167.91#182.74#200.64
150#19.43#51.49#72.46#97.97#120.66#141.13#152.67#170.12#187.37
151#17.12#28.18#50.74#82.46#101.64#132.41#158.09#180.04#193.07
152#22.68#45.01#75.0#99.11#117.35#143.17#160.17#178.07#193.15
153#24.27#48.7#70.89#96.08#114.12#134.84#163.0#174.11#193.57
154#18.99#47.77#77.19#93.08#108.27#137.42#155.83#178.38#193.66
155#31.05#51.67#74.87#96.15#119.22#136.45#165.4#188.79#202.1
156#18.68#39.15#71.23#92.83#113.61#135.02#158.17#174.17#202.09
157#16.67#38.32#63.16#82.11#105.62#128.27#148.58#168.82#193.9
158#14.05#42.59#69.01#82.88#100.83#126.84#146.07#167.95#206.65
159#21.52#35.65#59.24#89.15#107.27#132.7#159.55#175.41#201.15
160#20.13#35.58#58.19#86.69#115.98#135.77#164.01#179.69#201.94
161#22.0#40.92#57.46#83.21#108.89#120.45#150.03#183.06#198.8
162#7.64#35.07#56.65#82.49#98.67#117.96#148.38#168.77#189.16
163#16.57#36.02#56.83#75.36#96.86#123.26#152.71#181.03#205.09
164#23.14#42.67#55.15#80.08#104.65#134.44#155.65#173.91#200.14
165#19.04#47.85#74.86#87.76#115.72#131.68#149.93#171.88#188.83
166#24.69#51.61#77.89#91.12#107.28#127.55#150.73#166.85#196.77
167#23.18#50.92#65.9#86.75#112.09#130.93#146.11#172.42#193.43
168#21.02#40.52#68.36#92.87#110.57#123.85#147.06#163.5#184.53
169#17.44#38.49#64.98#86.2#105.77#127.39#149.88#177.41#199.25
170#20.52#41.97#66.64#88.69#112.39#142.96#167.36#181.2#197.34
171#20.46#43.06#59.63#93.85#112.28#147.12#164.16#182.23#197.47
172#16.99#36.22#68.06#89.79#109.53#132.89#150.84#169.99#185.15
173#24.2#45.01#67.14#88.52#108.0#134.81#166.04#184.89#203.12
174#12.94#34.22#46.57#69.44#83.43#102.29#127.47#154.58#186.07
175#27.82#54.64#72.79#101.08#124.0#140.04#156.48#171.35#189.62
176#19.75#37.35#71.98#90.72#103.71#135.7#158.02#179.95#200.62
177#26.71#41.56#62.05#85.12#113.01#139.37#150.78#171.8#199.2
178#29.48#56.4#79.84#98.06#120.48#142.29#165.81#177.19#204.45
179#20.87#41.54#60.24#85.66#109.2#133.88#144.63#170.35#194.44
180#20.39#39.29#65.48#86.68#100.86#126.95#150.36#177.27#192.19
181#19.81#44.55#61.1#80.61#109.79#134.25#151.01#174.17#192.85
182#18.74#46.11#67.45#87.64#116.25#136.32#156.23#177.94#197.84
183#20.0#42.48#69.05#92.28#108.77#133.21#150.42#170.05#198.26
184#26.52#43.29#69.52#97.94#107.25#128.14#154.87#174.3#201.04
185#27.27#47.47#75.05#94.07#114.19#130.84#149.58#181.32#201.87
186#19.5#35.5#56.56#86.75#115.83#138.74#156.75#186.86#203.25
187#30.81#53.16#77.64#102.0#120.81#139.57#168.11#184.59#198.71
188#23.69#39.45#64.26#95.7#120.53#143.05#161.03#182.47#204.85
189#19.98#47.81#74.31#91.44#105.45#129.04#145.26#172.15#196.46
190#11.85#31.56#54.21#73.19#95.08#123.33#147.56#167.16#192.72
191#36.49#60.13#76.4#88.04#102.74#123.02#144.63#162.59#188.2
192#28.93#47.08#62.4#86.94#112.77#141.96#161.38#181.22#198.82
193#20.97#34.48#57.93#84.32#114.81#135.15#157.72#182.57#200.33
194#24.96#51.97#67.47#84.8#108.15#128.04#155.83#170.99#192.37
195#16.63#47.97#58.35#84.56#110.95#128.2#150.86#165.21#190.29
196#23.25#59.4#83.14#109.06#125.5#147.17#164.91#185.43#203.76
197#21.56#39.46#61.79#79.68#102.88#123.85#136.55#177.39#199.38
198#17.61#35.36#56.24#79.47#110.27#126.98#144.28#173.53#196.18
199#30.5#45.92#71.37#93.14#112.81#142.17#158.45#181.07#202.13
200#17.73#47.85#68.54#92.44#112.46#128.85#146.45#170.48#193.83
201#24.72#51.68#74.78#94.3#115.89#136.01#159.67#179.08#193.69
202#20.93#47.45#70.71#91.69#108.9#125.71#147.97#173.85#195.51
203#18.57#52.51#80.81#96.04#111.51#133.81#153.49#181.67#201.42
204#16.85#31.12#64.88#91.52#117.5#140.24#154.82#173.62#196.98
205#21.0#42.21#62.55#80.13#110.3#126.72#148.14#173.57#206.06
206#29.31#43.24#64.13#90.96#108.49#134.42#151.37#168.36#193.04
207#16.37#42.31#62.33#73.47#102.94#113.44#144.86#167.87#194.77
208#11.48#31.21#48.36#69.61#96.17#122.48#141.41#171.32#192.58
209#21.06#38.0#56.05#89.83#108.09#146.28#162.63#176.0#197.54
210#17.29#42.48#67.53#95.93#124.21#136.55#157.63#177.01#197.75
211#9.78#26.13#44.89#75.9#98.52#130.93#148.19#174.75#191.58
212#21.25#40.1#58.09#78.09#110.98#127.27#150.51#175.35#198.08
213#12.95#29.6#53.42#79.94#96.39#130.88#152.01#179.07#198.46
214#20.2#41.24#57.91#89.67#114.94#140.12#153.95#178.19#192.0
215#27.68#58.58#77.42#94.54#113.59#141.7#158.4#177.84#207.48
216#13.46#26.27#45.17#74.75#102.1#121.14#138.76#165.66#196.86
217#23.74#43.84#66.22#83.92#112.08#135.13#159.46#182.79#201.33
218#19.92#51.94#67.5#91.7#121.55#139.88#156.65#185.66#197.29
219#28.53#46.38#64.46#94.67#112.52#126.53#157.56#182.23#200.45
220#15.07#44.8#66.26#90.22#129.78#147.14#174.05#184.04#201.18
221#27.65#44.22#66.39#83.54#115.04#139.59#162.08#177.02#190.12
222#33.36#53.37#75.3#91.13#119.0#138.83#157.78#172.98#198.33
223#25.17#55.21#69.79#96.73#123.79#141.55#158.62#176.91#193.95
224#19.96#33.33#53.83#79.9#97.29#119.72#151.36#169.05#192.36
225#22.54#41.45#60.41#81.0#116.04#136.22#159.44#180.82#198.12
226#28.45#52.27#78.41#98.86#111.64#128.71#149.41#170.66#189.3
227#36.59#49.78#70.66#90.67#114.84#134.63#157.27#179.69#202.83
228#18.94#41.74#65.92#89.72#103.1#126.9#147.23#169.61#195.95
229#23.33#44.96#73.8#89.83#115.65#139.11#155.86#174.79#196.55
230#34.74#49.42#69.2#83.02#109.19#133.84#158.94#177.85#194.68
231#18.04#39.06#56.7#86.0#109.23#129.92#152.59#173.33#199.36
232#11.62#35.62#51.33#75.65#91.35#118.93#138.01#158.83#191.64
233#17.51#37.83#55.86#82.16#107.08#131.12#153.39#172.85#197.42
234#19.62#31.05#43.98#70.07#95.53#120.35#151.44#174.3#191.1
235#17.44#44.94#67.99#84.77#102.69#127.24#154.72#179.41#196.64
236#19.48#40.8#67.04#91.71#113.74#140.25#165.85#184.36#200.0
237#15.45#56.07#81.9#108.04#122.68#136.16#159.31#179.66#197.96
238#22.5#51.99#72.88#93.39#116.53#139.59#157.45#178.29#195.83
239#21.47#37.0#69.05#89.31#108.64#131.84#148.38#175.03#201.75
240#20.97#39.48#53.68#79.37#98.39#122.69#149.44#166.56#199.77
241#16.0#35.23#65.29#87.61#106.67#136.18#156.2#179.33#199.62
242#20.46#38.34#60.25#87.76#115.53#130.36#151.96#188.28#205.19
243#21.71#42.19#64.48#90.94#112.0#144.08#167.26#187.59#201.12
244#13.01#37.77#52.71#79.22#101.98#132.4#147.07#174.19#198.8
245#23.56#46.94#68.11#90.62#113.26#136.67#161.25#172.83#197.46
246#15.91#47.61#73.01#99.28#113.84#134.89#163.03#182.28#198.69
247#20.01#50.36#79.38#98.56#122.22#141.7#168.15#187.29#203.03
248#27.25#49.32#69.13#99.24#113.86#136.97#147.23#166.47#193.44
249#15.09#41.66#64.35#86.49#106.09#128.07#147.31#173.3#193.96
250#20.04#43.97#69.57#94.1#120.57#142.83#169.02#192.67#205.03
251#11.38#39.17#58.41#82.27#100.57#138.77#164.28#179.55#197.76
252#17.0#34.51#68.45#90.44#113.97#134.43#154.33#174.54#193.66
253#20.6#41.61#66.89#87.23#111.56#126.04#152.76#176.47#195.41
254#24.91#55.17#83.16#100.49#126.68#149.24#167.52#179.31#200.22
255#17.13#44.4#53.95#75.83#99.16#123.54#146.87#167.44#200.15
256#24.94#46.8#64.41#75.45#106.37#124.88#160.54#180.84#194.14
257#25.7#48.9#82.84#97.59#125.98#148.58#161.1#182.14#196.72
258#20.31#44.14#64.87#84.82#116.56#136.74#152.07#181.92#192.35
259#30.72#50.85#71.65#93.46#110.62#140.4#165.12#180.27#196.46
260#27.87#44.64#73.88#105.96#122.67#152.39#164.88#190.03#201.67
261#22.89#43.78#67.77#85.55#111.79#131.97#157.52#185.36#205.08
262#17.94#48.79#74.07#94.13#119.84#139.4#164.75#185.6#201.81
263#21.84#58.39#83.6#102.01#118.39#144.85#165.73#183.87#199.37
264#11.42#28.34#47.4#68.33#96.63#118.55#144.83#173.85#198.51
265#29.0#43.37#60.77#82.15#109.81#134.68#151.04#165.43#195.41
266#30.66#44.71#77.72#97.35#116.02#137.2#156.05#173.49#192.99
267#13.5#45.26#61.46#86.92#110.45#131.49#157.04#168.46#192.36
268#27.3#51.5#74.2#95.36#111.57#133.69#153.25#174.98#195.41
269#22.17#47.87#63.41#83.72#102.34#121.33#152.29#173.69#201.32
270#29.72#46.85#64.23#91.19#118.38#148.7#172.33#190.24#204.33
271#22.97#37.39#54.0#73.34#103.25#130.84#166.68#181.13#198.4
272#23.24#42.59#61.82#80.16#98.85#121.67#161.36#187.83#198.81
273#22.77#53.84#75.47#102.5#134.84#152.53#169.59#188.88#202.23
274#16.03#33.46#60.89#81.47#97.31#117.1#139.27#161.85#183.86
275#22.91#37.6#52.34#68.36#88.01#115.83#135.4#167.16#195.09
276#17.58#43.16#60.7#78.23#97.78#116.12#141.68#169.75#196.24
277#16.3#36.01#55.12#83.75#114.56#132.96#155.43#174.1#191.81
278#14.4#32.26#59.75#78.94#98.0#130.71#147.96#170.16#195.95
279#18.99#32.46#55.25#85.35#105.46#134.67#154.66#179.51#207.26
280#20.43#42.96#68.02#90.35#107.18#125.81#142.39#159.2#194.4
281#18.72#39.01#66.69#78.58#105.67#129.65#165.22#178.62#203.48
282#20.41#37.74#64.33#87.64#112.46#134.47#159.36#179.25#195.21
283#22.14#46.05#63.87#88.94#111.74#132.32#149.58#177.3#205.46
284#19.16#36.08#59.54#91.55#121.42#145.93#166.09#185.85#205.64
285#22.58#43.93#68.97#96.09#115.53#133.19#157.28#175.43#198.87
286#16.04#31.79#60.77#81.3#98.96#119.82#159.09#180.37#200.71
287#12.59#38.21#63.51#90.96#109.9#138.49#152.43#171.35#195.09
288#14.03#39.38#64.34#90.62#102.94#124.92#147.56#172.75#190.54
289#23.62#45.45#69.4#91.75#107.28#128.63#151.53#174.46#201.66
290#14.41#42.11#66.29#89.37#112.14#129.23#144.38#181.72#201.5
291#17.8#40.99#66.68#87.84#113.29#133.86#150.01#174.88#192.38
292#22.16#42.29#57.4#93.3#118.23#136.85#155.84#177.85#199.78
293#21.58#45.94#70.53#91.23#106.92#133.58#154.06#175.12#192.37
294#20.03#48.5#66.52#83.93#113.26#130.23#151.55#169.79#193.93
295#7.28#29.99#56.9#93.81#113.51#131.94#161.42#174.76#191.42
296#16.31#38.81#62.39#88.53#107.66#134.33#156.73#180.86#201.12
297#20.33#39.02#57.85#83.2#105.33#122.71#144.65#176.54#190.32
298#28.79#47.34#64.69#87.15#113.31#134.09#150.48#177.03#198.45
299#26.43#53.45#73.55#89.71#113.36#129.32#145.27#171.23#196.96
300#21.61#39.36#57.2#82.47#100.55#120.03#138.63#161.4#187.92
301#24.18#43.8#62.02#92.26#121.98#145.48#160.32#181.94#204.08
302#12.99#36.55#63.46#84.69#108.41#131.55#147.18#161.98#188.14
303#17.56#33.3#60.61#84.01#101.02#118.54#144.6#172.74#194.04
304#26.96#49.9#66.63#92.01#111.82#131.78#159.07#171.56#200.62
305#11.05#43.52#63.18#85.9#104.71#129.29#149.04#175.64#197.11
306#21.52#44.06#65.95#83.28#105.21#126.1#156.69#175.01#194.54
307#17.53#32.32#63.59#90.42#105.88#136.91#160.9#180.37#200.25
308#14.78#38.02#57.98#83.31#99.72#116.03#141.62#166.48#189.97
309#20.8#41.7#74.3#96.81#119.98#139.87#157.06#190.25#201.68
310#13.51#41.53#56.45#86.26#105.41#129.74#144.73#169.61#191.46
311#18.7#36.47#65.61#90.23#109.48#129.53#149.05#164.61#203.42
312#19.25#36.87#64.82#88.12#114.66#128.67#154.72#191.31#207.42
313#33.23#55.98#72.85#93.35#113.34#142.38#167.53#184.1#204.47
314#24.93#51.59#68.77#96.74#114.07#140.34#165.16#175.52#190.97
315#19.51#43.04#62.36#83.8#115.24#134.89#156.5#172.76#189.79
316#25.1#52.84#78.42#93.66#108.02#127.99#148.86#181.08#200.92
317#26.94#47.9#63.44#81.06#106.76#135.44#155.77#173.74#189.07
318#21.22#47.32#64.14#89.6#111.23#136.3#152.21#177.94#193.28
319#23.65#39.78#59.73#82.02#102.99#119.71#151.21#173.11#187.07
320#22.85#46.49#72.73#91.66#106.67#135.48#150.37#177.08#198.37
321#16.93#42.02#59.55#78.71#104.44#121.27#142.56#162.45#192.02
322#21.94#41.09#57.23#75.03#94.68#107.82#133.52#163.04#192.36
323#17.67#44.12#70.05#95.79#113.3#130.93#158.24#188.06#209.15
324#16.89#32.43#58.37#82.33#92.51#119.29#141.94#170.22#196.89
325#20.54#42.51#61.87#84.15#105.12#117.33#138.36#171.66#193.89
326#22.29#45.38#71.81#89.79#103.37#128.01#151.46#163.9#185.8
327#14.22#39.83#72.56#98.49#114.98#138.6#160.71#179.72#197.86
328#19.68#43.95#73.29#103.33#124.13#141.48#162.36#184.74#198.0
329#22.79#41.41#59.76#80.79#102.17#121.95#142.66#165.56#187.74
330#17.41#39.47#54.96#73.58#99.52#126.22#148.72#170.11#192.55
331#16.99#42.98#62.86#94.54#117.99#143.28#159.87#171.14#195.34
332#15.85#32.65#63.34#89.3#102.58#139.17#158.25#177.48#197.89
333#24.28#43.03#66.41#86.54#118.31#136.2#155.47#174.93#194.46
334#17.18#40.42#69.05#102.19#123.11#146.14#166.85#196.59#208.94
335#27.65#49.45#73.49#96.17#120.37#137.97#153.95#178.09#198.65
336#22.72#47.6#68.19#105.63#127.93#145.16#157.39#176.36#192.87
337#25.37#38.7#54.08#77.25#93.27#130.36#160.18#177.4#201.02
338#13.57#38.42#63.32#86.04#106.84#131.32#156.76#181.77#205.57
339#22.18#47.55#60.66#75.61#100.57#118.59#148.49#171.83#191.79
340#17.93#39.82#55.24#76.52#109.84#133.44#165.63#185.55#197.63
341#23.42#43.28#64.63#89.65#108.11#129.89#150.7#175.68#192.6
342#13.55#58.0#79.49#100.23#116.62#134.44#155.28#174.19#196.94
343#20.9#44.27#71.56#90.3#111.88#133.85#163.0#180.14#198.66
344#16.1#44.98#69.0#91.39#112.81#132.58#155.45#174.83#202.25
345#19.49#36.32#60.52#89.42#114.85#138.66#160.29#186.37#203.48
346#11.29#39.87#68.16#94.26#107.94#126.38#152.16#171.46#199.15
347#18.86#49.63#76.07#100.42#115.6#135.88#155.82#172.06#196.49
348#19.61#36.41#54.91#79.09#106.93#126.38#143.68#162.62#193.82
349#25.37#52.58#76.57#104.37#126.59#143.16#168.2#182.71#203.24
350#30.6#51.42#78.35#94.19#119.32#144.49#159.11#178.92#190.46
351#26.86#50.68#74.64#90.06#116.77#138.19#159.24#182.58#199.28
352#21.4#45.43#63.3#82.29#100.57#121.81#144.93#177.1#201.5
353#14.28#36.74#65.82#96.57#120.59#141.7#166.17#179.46#197.57
354#21.46#48.83#77.46#95.89#114.98#137.33#150.96#171.46#195.3
355#13.7#38.93#58.83#86.26#110.64#131.79#147.44#174.08#197.83
356#26.29#48.19#73.59#83.13#117.32#132.6#153.16#179.65#198.8
357#18.82#38.04#60.65#79.45#106.06#136.02#168.45#186.3#203.22
358#26.91#47.32#76.59#102.07#125.47#140.77#162.67#183.08#204.08
359#23.37#43.64#63.47#91.03#116.51#132.35#152.02#175.59#198.58
360#22.65#39.77#65.25#100.4#124.65#146.57#168.71#180.97#205.78
361#34.67#55.37#69.97#87.71#109.21#143.08#162.29#178.92#196.61
362#25.89#41.33#61.3#78.66#96.25#124.03#151.01#179.82#202.79
363#16.43#34.99#62.22#94.55#116.24#133.85#153.64#172.26#201.34
364#22.58#56.32#77.75#100.93#125.22#141.81#156.42#178.95#200.1
365#17.88#34.68#61.14#98.26#126.7#145.32#159.71#181.31#199.99
366#14.54#34.53#56.37#70.61#100.85#121.76#152.0#169.74#196.62
367#15.35#38.21#60.5#86.75#110.7#138.14#155.24#182.69#196.77
368#20.65#49.35#65.19#86.88#101.67#128.38#149.08#174.81#194.09
369#18.45#47.92#73.23#86.82#105.8#123.96#145.99#166.94#190.52
370#15.69#45.47#73.43#103.61#126.08#143.68#162.47#189.34#203.77
371#16.89#45.92#67.69#103.45#125.17#143.77#161.52#185.28#210.83
372#13.96#39.2#67.89#97.43#124.96#143.87#172.96#186.88#200.13
373#17.99#46.79#69.59#84.84#107.04#132.62#159.49#179.81#194.94
374#13.39#30.27#56.29#72.02#101.06#122.69#145.42#162.51#182.88
375#16.66#35.67#56.37#79.46#98.55#128.96#155.32#184.46#203.53
376#23.66#33.97#62.96#93.74#109.96#133.44#155.41#182.83#202.73
377#26.34#42.26#56.63#75.27#94.98#125.66#147.5#167.57#196.64
378#21.56#42.68#58.06#81.23#111.31#132.99#154.16#178.04#196.67
379#13.0#33.5#56.77#78.27#108.65#129.39#150.05#174.1#199.22
380#26.15#56.76#65.77#77.74#96.26#118.58#144.01#173.07#184.92
381#16.91#47.98#79.74#95.71#137.33#155.75#175.68#192.64#208.76
382#12.42#29.07#50.48#69.35#103.69#123.79#139.41#164.04#189.34
383#20.06#49.54#62.58#89.35#108.44#129.34#161.83#173.03#192.79
384#21.17#37.46#57.05#74.54#93.84#119.45#148.53#170.96#198.29
385#15.11#37.03#59.03#78.06#99.55#129.53#150.78#180.04#199.14
386#22.48#39.44#55.39#77.89#112.7#132.89#150.58#173.65#200.36
387#21.63#36.41#54.17#85.27#117.18#143.99#159.61#180.51#195.98
388#22.84#48.51#78.6#95.51#103.19#128.48#146.76#171.41#191.15
389#32.17#53.84#73.95#94.88#116.48#134.67#160.91#177.08#196.13
390#31.51#48.72#66.94#96.59#111.81#132.97#146.75#165.9#194.07
391#16.64#29.13#45.82#91.82#112.51#139.53#157.37#177.69#204.47
392#14.8#38.08#58.99#87.88#113.41#147.89#166.77#181.36#201.98
393#17.99#44.59#64.29#84.66#108.8#127.67#152.08#174.74#197.76
394#16.33#25.98#54.16#79.28#99.23#114.77#147.61#176.9#191.44
395#18.61#36.6#61.73#81.16#101.94#144.93#172.91#189.58#204.3
396#18.76#45.93#69.75#84.47#111.17#139.96#159.77#174.01#193.9
397#21.02#31.71#54.84#71.73#100.18#123.93#148.98#170.49#191.73
398#16.3#37.33#66.06#90.87#113.41#136.14#154.98#174.7#201.67
399#25.99#45.33#63.06#77.47#99.78#118.05#150.84#180.89#200.87
400#18.66#45.26#69.13#89.92#106.03#142.43#162.25#176.85#202.16
401#30.16#44.78#70.07#92.89#113.86#135.4#150.94#169.07#191.2
402#27.49#48.85#75.17#93.61#113.42#131.6#152.97#172.19#190.57
403#21.11#39.26#62.83#89.87#114.75#138.6#155.96#180.23#198.22
404#12.22#41.27#60.92#79.32#103.39#131.35#151.79#175.61#194.46
405#21.09#48.64#68.99#89.12#110.71#144.61#158.96#173.14#199.89
406#24.21#43.31#74.77#94.62#114.91#148.87#169.44#188.08#201.41
407#27.18#44.34#61.36#85.88#102.69#128.86#151.72#170.26#202.44
408#17.86#37.73#68.23#84.32#109.21#140.08#162.17#185.3#198.59
409#16.36#50.87#65.39#87.75#112.48#135.68#155.63#179.11#202.85
410#23.67#39.53#78.29#102.46#116.41#128.98#160.86#179.6#204.26
411#17.39#40.42#69.76#90.83#108.03#131.1#156.23#180.14#202.57
412#12.56#30.83#54.32#72.93#88.57#112.6#144.68#180.44#199.34
413#23.06#39.61#62.02#84.67#106.1#131.83#161.26#180.72#199.39
414#12.0#28.62#49.89#79.97#94.55#119.18#141.72#169.98#192.01
415#11.79#34.66#52.71#70.61#91.98#127.61#156.16#187.41#204.47
416#15.43#44.04#69.01#94.83#116.5#142.17#158.78#176.86#197.34
417#27.39#55.86#80.98#100.12#119.35#136.14#154.32#172.93#192.73
418#13.25#57.03#82.78#97.84#118.48#138.69#159.17#179.9#199.18
419#23.81#42.77#60.66#73.66#93.81#121.8#148.1#178.51#196.0
420#31.27#44.14#62.18#88.3#105.57#124.32#152.21#171.27#195.88
421#25.31#36.62#59.58#84.37#102.87#127.99#148.5#172.0#199.68
422#27.72#52.28#73.53#100.45#121.4#138.96#154.08#175.83#196.4
423#15.34#39.86#70.24#84.46#105.07#120.94#143.42#171.29#204.63
424#25.55#43.56#55.27#76.14#101.48#128.91#153.02#182.5#203.96
425#29.89#62.09#82.31#94.78#106.95#131.48#158.41#177.52#196.44
426#24.86#44.68#61.46#74.95#93.32#127.3#151.51#167.01#193.44
427#21.97#43.09#74.47#101.1#123.37#133.5#157.74#179.16#191.78
428#25.64#59.56#74.34#94.06#112.36#136.83#157.58#183.38#202.49
429#21.39#40.36#56.06#77.56#104.18#124.36#151.22#175.83#204.44
430#21.87#40.26#62.13#86.89#110.86#123.06#138.47#168.53#195.05
431#17.05#29.93#61.53#85.59#123.3#144.75#162.74#181.02#198.38
432#32.96#51.7#73.45#96.55#117.57#131.8#155.38#170.31#199.18
433#23.58#48.25#70.16#93.25#108.43#131.55#147.52#173.68#203.05
434#18.12#38.56#73.96#93.7#124.91#143.53#162.43#186.29#202.99
435#22.37#41.97#59.24#87.74#114.5#138.16#152.28#173.99#195.72
436#16.14#43.03#67.36#88.1#108.64#130.5#155.94#182.64#195.49
437#24.56#51.94#68.81#88.04#114.86#140.13#167.85#185.08#202.01
438#21.81#47.91#64.16#86.25#103.15#135.69#154.44#183.47#201.14
439#29.99#48.0#71.5#88.53#114.52#134.2#150.52#175.97#193.04
440#24.42#42.24#61.75#81.98#105.03#123.66#148.57#177.95#198.82
441#25.28#63.47#87.03#106.07#120.95#142.9#157.48#173.03#194.56
442#23.78#47.01#64.06#92.26#117.91#135.63#159.47#180.93#195.3
443#16.43#29.78#56.63#91.19#112.2#135.05#162.85#180.36#198.58
444#21.22#44.17#64.79#78.53#104.76#130.78#151.56#172.04#200.15
445#18.87#41.31#65.31#86.18#113.0#130.9#153.36#173.59#197.35
446#22.72#34.87#58.97#82.78#111.73#137.6#161.81#181.58#198.61
447#18.76#33.45#66.13#100.4#116.23#135.06#159.05#183.18#200.95
448#26.92#43.09#64.69#89.28#116.41#138.55#155.78#177.25#199.56
449#14.57#37.55#76.76#95.89#121.8#137.6#155.49#169.11#194.54
450#12.82#34.69#53.82#82.84#100.64#122.19#146.03#177.68#207.88
451#26.14#42.72#67.84#87.16#109.84#129.94#153.99#174.76#200.99
452#20.11#40.83#64.58#87.82#113.47#133.61#148.93#169.73#194.76
453#20.0#37.45#60.16#87.55#103.45#126.96#145.53#169.16#194.34
454#26.96#37.88#73.48#93.92#109.0#132.31#144.12#165.27#189.1
455#15.43#37.43#59.84#84.48#99.3#121.67#161.3#181.91#203.9
456#22.07#48.66#71.07#87.58#112.06#133.89#162.18#188.33#206.43
457#18.59#44.36#70.14#95.22#115.84#138.95#160.25#184.25#205.33
458#20.65#43.52#71.19#98.05#115.06#143.59#163.6#185.68#204.76
459#22.89#46.36#76.13#84.8#110.22#141.12#162.38#174.07#195.14
460#17.18#34.42#53.1#79.2#91.97#109.34#142.99#162.51#188.48
461#16.32#29.54#52.74#81.17#104.94#126.36#149.07#165.52#185.19
462#13.44#37.97#61.95#99.43#117.89#137.52#159.82#182.83#200.4
463#21.74#37.52#57.26#83.11#99.39#126.99#152.04#174.58#207.95
464#22.59#46.0#92.93#106.62#122.17#142.77#159.09#178.51#206.59
465#15.53#39.21#65.52#99.94#119.23#133.03#157.15#177.35#194.5
466#20.62#45.05#64.08#88.47#101.96#121.61#139.98#169.64#197.35
467#15.13#38.0#54.2#73.5#91.59#116.44#136.21#158.24#178.04
468#15.86#47.0#76.4#100.45#132.31#148.96#159.53#180.66#193.97
469#20.39#48.3#72.79#93.36#119.41#134.02#153.79#179.52#204.93
470#19.46#37.12#56.18#73.7#98.72#117.9#140.12#163.24#184.63
471#23.38#49.77#69.37#93.31#112.6#125.96#154.8#185.65#204.92
472#24.71#49.68#77.32#93.54#108.81#133.54#151.96#162.71#190.99
473#26.88#53.38#73.9#95.66#109.97#137.04#149.75#173.61#189.15
474#29.53#48.73#69.69#89.85#106.73#124.05#143.71#167.21#196.8
475#15.89#36.6#63.93#80.73#105.29#135.13#146.67#175.84#201.56
476#22.74#40.2#57.33#91.53#113.94#129.05#144.99#164.67#190.12
477#20.63#36.42#63.17#90.32#117.26#134.88#158.76#184.89#198.63
478#29.18#50.83#77.27#96.61#121.85#140.42#158.83#176.78#202.49
479#15.43#43.18#57.05#72.83#86.71#108.77#138.76#172.86#195.71
480#13.7#39.83#68.26#97.26#117.32#137.69#156.06#175.62#197.41
481#15.13#35.06#68.93#85.75#115.73#131.38#159.08#176.08#191.06
482#21.8#51.78#77.07#98.49#117.43#131.96#155.79#180.02#196.5
483#29.89#47.76#68.77#91.56#116.51#137.36#161.07#188.79#204.96
484#16.54#45.55#59.8#78.94#96.37#122.24#148.43#169.64#200.72
485#22.66#41.62#55.77#75.83#95.7#122.41#148.92#173.54#187.85
486#9.18#30.94#51.19#73.83#90.2#111.65#135.79#165.01#186.16
487#33.43#70.06#86.24#107.9#120.3#139.61#164.05#179.05#195.17
488#14.23#50.92#80.47#101.63#120.19#142.76#160.94#181.58#203.69
489#24.36#47.88#63.79#80.58#111.38#130.84#162.03#188.16#202.17
490#29.96#56.24#81.95#112.13#134.57#151.03#169.9#185.19#200.63
491#20.74#46.79#71.58#80.93#98.76#119.83#156.48#174.03#199.09
492#22.29#36.51#69.29#98.0#117.13#138.22#159.04#186.87#199.86
493#18.72#35.87#59.51#75.11#90.97#123.97#146.19#168.37#198.64
494#27.11#46.62#84.27#99.68#134.1#156.43#168.26#188.8#203.02
495#22.36#45.05#60.87#79.16#105.06#120.29#147.88#172.93#194.75
496#30.43#59.8#71.71#103.66#116.95#142.65#157.79#178.15#201.78
497#20.05#45.26#67.02#81.59#104.27#133.17#150.91#167.1#197.77
498#15.52#46.61#68.26#85.62#108.07#126.68#143.77#166.42#190.73
499#25.15#37.11#54.69#78.46#95.26#118.24#154.23#173.53#196.14
500#21.05#42.16#64.97#91.76#108.41#134.88#161.58#175.92#201.42
501#28.94#51.21#77.93#93.55#117.68#135.38#149.38#172.31#197.06
502#14.03#46.37#71.76#86.62#106.05#122.27#146.17#167.06#184.28
503#21.84#36.24#55.14#74.59#110.01#134.18#153.83#175.2#199.98
504#22.43#48.72#75.29#94.39#114.91#138.08#156.49#182.9#199.1
505#21.8#43.7#61.6#83.17#101.96#132.37#151.4#178.68#198.65
506#24.98#46.36#69.25#87.04#104.93#133.13#152.93#177.84#197.09
507#22.6#43.61#70.5#91.38#109.99#138.54#168.34#193.36#206.4
508#15.67#33.15#66.58#82.55#95.36#119.37#149.7#166.39#198.59
509#13.47#34.01#44.59#71.42#100.99#121.98#146.45#166.46#194.5
510#13.93#34.0#60.82#91.64#112.3#147.78#166.17#180.23#195.45
511#35.56#66.7#86.87#100.71#118.46#135.68#155.53#174.13#202.29
512#24.81#49.82#73.97#95.22#114.34#128.19#149.11#168.51#187.45
513#17.49#37.03#55.77#85.8#108.42#135.27#160.07#182.13#197.01
514#27.75#45.05#58.47#80.19#103.04#131.49#156.88#177.11#202.57
515#37.22#54.36#81.43#107.45#130.45#150.15#176.57#191.01#206.05
516#21.39#45.23#65.24#79.54#100.76#125.98#151.97#168.44#194.37
517#12.94#32.52#60.18#82.49#101.77#124.72#147.4#168.81#194.16
518#15.86#39.5#57.58#82.88#106.48#125.37#151.15#173.52#194.68
519#14.17#29.24#51.65#82.16#105.49#126.3#153.52#179.76#203.78
520#15.04#33.03#56.91#79.84#105.4#122.62#144.61#173.34#196.2
521#23.4#53.7#73.89#96.56#120.66#144.29#165.06#189.86#203.65
522#21.81#48.62#60.88#78.99#107.33#134.9#148.8#171.13#199.3
523#24.89#63.27#90.25#105.2#122.55#140.22#159.94#182.8#206.09
524#16.39#36.21#59.81#94.97#109.95#128.55#153.88#168.06#202.55
525#19.49#47.03#67.62#92.37#110.01#131.49#159.75#189.55#204.3
526#12.53#41.19#60.62#87.32#117.18#142.28#162.71#174.74#196.52
527#21.06#38.85#69.7#94.92#117.47#138.34#151.71#183.53#200.28
528#17.2#50.8#80.67#110.82#129.64#146.22#173.96#185.1#200.71
529#16.3#37.26#58.93#82.2#103.36#128.39#152.17#176.73#194.61
530#16.65#31.78#43.51#64.5#85.78#109.5#138.1#163.76#187.11
531#16.6#41.32#72.62#92.6#112.01#133.82#161.66#171.42#197.64
532#9.86#31.38#53.86#91.1#120.08#146.64#160.15#175.91#198.26
533#27.09#45.21#63.24#91.54#116.13#128.92#155.57#178.85#199.4
534#18.28#44.9#75.24#99.85#120.64#144.6#161.24#188.73#203.79
535#26.75#57.36#71.83#86.67#119.04#135.46#154.2#176.02#194.81
536#19.09#36.23#48.73#73.33#95.02#124.5#143.5#180.65#192.74
537#18.15#38.07#51.25#69.62#105.04#123.61#143.77#170.31#192.42
538#20.53#40.46#59.59#88.83#108.13#134.04#165.62#176.74#195.29
539#22.56#52.81#69.97#86.0#104.01#130.12#154.25#180.58#196.44
540#25.66#47.11#66.85#101.12#120.07#134.55#159.26#178.55#203.71
541#21.6#49.14#70.64#87.85#103.31#131.3#148.86#173.28#192.16
542#20.83#38.68#59.75#77.96#93.39#112.83#145.28#157.85#190.85
543#28.17#44.88#66.08#96.42#120.97#139.78#151.62#172.7#195.23
544#24.51#49.99#75.09#93.07#127.6#153.86#167.71#188.64#204.14
545#27.09#54.11#76.04#97.97#120.89#134.91#154.77#180.16#192.75
546#25.73#43.6#77.35#92.35#104.84#126.25#161.94#179.3#199.0
547#16.32#32.08#54.36#72.5#102.26#131.15#164.15#187.52#202.85
548#13.9#34.71#48.16#77.1#102.43#120.78#149.41#180.92#196.33
549#18.32#39.05#72.55#95.42#106.01#131.71#153.81#185.23#207.31
550#26.6#43.81#52.03#86.31#116.3#144.59#164.17#181.33#201.22
551#14.38#41.59#62.04#77.28#96.79#130.92#155.55#174.37#197.73
552#25.66#43.5#68.26#95.24#113.26#137.47#166.01#177.33#195.74
553#13.22#52.0#73.72#98.9#120.5#142.85#154.28#176.28#197.2
554#14.9#27.26#46.34#69.96#92.58#113.6#142.9#163.56#197.74
555#20.16#44.73#77.56#91.9#114.31#125.93#147.92#181.45#198.32
556#16.66#37.94#57.75#86.34#114.99#137.6#152.49#182.34#201.8
557#26.79#48.4#77.12#93.76#114.01#136.86#153.13#173.25#201.02
558#17.2#36.9#64.69#85.92#108.29#130.58#162.08#179.09#197.54
559#19.31#37.97#58.83#82.13#107.63#130.91#146.27#173.14#193.34
560#30.77#44.6#68.75#89.65#109.68#133.03#155.98#180.51#194.75
561#17.6#33.89#49.15#88.03#111.06#127.9#148.55#174.67#198.29
562#36.36#60.39#83.15#101.1#112.28#131.05#162.33#188.38#202.66
563#23.6#47.08#59.75#76.9#100.29#124.69#142.06#163.96#194.67
564#19.52#45.03#62.37#96.42#117.2#132.27#149.63#167.58#193.24
565#25.2#48.11#63.68#88.93#112.77#137.36#152.78#174.96#203.43
566#12.03#34.42#48.91#71.31#105.2#126.58#151.0#177.85#192.47
567#10.27#35.25#52.62#68.12#90.38#111.92#130.31#162.41#187.36
568#14.22#27.75#48.35#75.17#106.58#129.61#157.28#175.85#197.9
569#25.71#44.98#69.33#94.3#118.14#145.64#172.45#186.33#200.52
570#24.62#44.83#64.99#93.81#115.63#144.07#162.88#176.35#199.92
571#20.26#39.38#62.59#90.94#108.51#134.41#151.03#168.27#189.77
572#17.92#38.26#59.08#83.86#109.15#132.56#154.21#171.16#196.01
573#19.79#38.43#75.29#98.53#115.5#133.45#152.46#171.95#202.02
574#24.26#39.65#61.03#79.12#86.73#107.18#138.93#168.83#199.19
575#23.21#49.5#72.23#94.69#107.92#122.35#147.7#171.06#195.77
576#25.52#54.3#76.72#102.82#127.29#140.18#163.31#183.76#205.52
577#12.45#40.11#69.66#91.15#108.86#138.42#156.55#180.93#195.25
578#15.31#31.69#55.37#78.9#102.22#128.3#151.25#182.36#202.62
579#20.14#44.27#68.04#101.03#124.54#147.7#164.37#185.16#205.71
580#12.62#28.93#55.63#72.03#97.45#118.88#135.55#169.62#193.04
581#23.05#45.64#74.84#105.67#126.96#141.18#167.1#185.82#201.93
582#24.73#50.4#71.88#83.37#103.77#142.9#160.2#176.42#199.07
583#19.21#36.49#61.74#88.12#106.51#124.12#147.68#177.66#203.83
584#15.28#36.77#53.02#68.58#91.41#111.2#138.2#163.12#197.97
585#18.55#46.06#67.35#86.8#112.16#128.04#144.17#161.95#189.15
586#22.95#46.43#69.16#89.28#109.46#123.57#140.73#161.5#200.33
587#14.82#43.57#61.51#88.82#105.73#139.37#162.49#188.61#203.69
588#19.05#45.43#73.06#85.12#116.99#132.89#156.93#178.81#197.14
589#26.15#56.01#69.49#91.28#115.12#133.96#154.5#178.02#205.31
590#17.3#30.03#61.59#87.49#106.17#126.38#151.23#178.09#201.83
591#19.02#35.43#55.54#87.24#104.68#125.54#149.94#169.61#193.09
592#26.5#45.25#63.47#82.9#114.15#129.28#154.07#181.38#199.28
593#18.87#40.09#59.38#84.14#106.71#128.4#152.67#169.69#198.24
594#14.0#46.99#66.24#88.84#102.54#120.21#139.79#171.6#203.16
595#15.96#31.7#53.2#74.22#102.78#133.43#154.69#179.59#195.2
596#18.17#35.89#55.53#70.85#101.6#121.54#150.25#169.77#200.88
597#18.88#40.36#63.22#88.66#101.22#129.27#153.32#175.69#198.33
598#24.28#47.99#64.72#82.57#107.55#124.36#157.54#180.32#195.15
599#22.92#46.25#67.1#88.03#108.3#129.54#156.65#180.46#201.17
600#22.83#39.69#53.44#71.94#95.52#109.27#135.34#165.66#201.12
601#17.07#30.09#49.03#69.23#102.51#127.79#151.73#168.04#198.3
602#22.31#56.91#76.08#95.07#115.8#130.56#155.42#170.04#188.08
603#22.08#45.21#76.32#98.45#118.38#139.75#164.38#185.95#205.54
604#17.25#35.39#58.29#82.44#97.67#128.18#151.25#167.8#194.23
605#24.62#43.46#66.24#84.32#112.1#139.99#160.86#180.21#207.32
606#26.79#47.1#71.49#86.36#108.69#130.39#142.56#165.46#199.35
607#16.84#40.61#56.37#77.81#94.91#122.14#146.14#169.74#193.71
608#29.41#45.23#74.69#95.08#116.63#146.99#162.77#180.62#204.42
609#21.5#39.94#68.78#97.21#113.52#141.38#156.67#174.93#198.87
610#24.18#42.88#62.25#87.64#113.81#137.19#157.94#184.74#204.11
611#26.82#48.41#80.69#99.08#110.77#127.22#142.39#168.8#193.85
612#22.05#48.41#80.87#92.99#112.34#132.61#145.34#173.03#194.36
613#15.64#47.18#65.81#89.27#111.73#127.96#150.36#174.18#199.92
614#32.26#59.3#82.15#92.26#118.51#138.87#158.47#182.76#205.36
615#25.58#43.04#69.45#83.93#103.08#123.66#152.15#168.94#196.23
616#24.05#44.44#65.93#90.75#118.28#147.35#160.97#193.87#207.98
617#21.69#42.6#65.0#92.12#101.23#130.1#150.14#177.57#194.97
618#27.58#44.52#69.51#88.77#118.54#137.67#156.96#173.5#204.7
619#15.86#42.07#57.52#87.54#121.88#145.2#163.08#176.67#199.43
620#21.99#42.05#63.75#84.21#110.96#137.47#161.21#187.54#203.32
621#19.17#41.8#57.48#77.74#103.69#120.61#144.08#168.78#188.2
622#10.61#30.3#55.02#75.76#97.65#110.3#139.94#170.2#192.36
623#15.37#34.43#56.35#89.26#112.46#136.81#157.62#179.74#202.81
624#23.8#45.93#59.16#79.88#98.66#122.74#151.81#181.52#195.65
625#18.85#47.91#69.03#91.74#113.88#135.49#155.51#174.39#200.3
626#20.42#40.06#65.5#98.26#113.89#137.28#151.8#172.19#193.67
627#34.84#70.37#85.69#110.11#134.38#155.54#169.53#187.45#198.83
628#15.47#41.81#60.22#74.02#94.02#117.79#145.42#173.36#196.79
629#23.05#47.47#71.7#91.13#114.05#130.65#155.04#170.21#201.36
630#22.94#54.52#70.7#92.35#117.55#137.45#163.32#183.99#207.88
631#29.19#56.82#72.7#103.82#118.66#136.4#158.53#176.65#196.04
632#15.37#37.73#57.4#73.07#96.01#131.8#160.38#179.9#196.17
633#13.79#36.09#54.91#77.56#106.88#124.64#141.66#170.27#185.86
634#33.08#65.12#87.24#103.54#121.77#138.88#160.22#178.71#202.82
635#19.73#42.88#55.48#76.58#99.89#125.03#143.67#163.93#186.7
636#11.62#37.08#64.93#94.92#109.8#126.18#145.28#173.83#193.57
637#18.42#41.05#68.62#100.97#115.78#129.16#150.58#173.81#187.4
638#31.82#61.35#86.07#106.01#129.51#143.52#161.94#173.87#199.59
639#18.52#50.68#75.17#94.75#111.19#139.65#156.45#175.59#196.47
640#23.78#46.64#70.66#100.32#111.46#132.41#151.78#172.25#196.17
641#16.23#46.86#71.17#99.83#127.14#139.97#157.02#177.4#201.28
642#20.43#46.45#66.15#89.82#115.84#142.27#159.41#179.32#199.48
643#19.96#42.0#55.56#78.4#110.18#131.72#148.55#176.52#196.28
644#23.35#40.69#66.29#82.07#111.7#133.54#161.56#182.05#200.24
645#22.8#40.18#51.5#73.04#96.46#133.04#152.07#172.48#192.73
646#18.31#38.58#65.56#84.56#109.2#142.44#163.35#190.16#203.29
647#19.11#37.62#64.48#86.29#111.51#138.59#164.73#180.89#207.19
648#24.5#35.2#62.59#82.32#109.12#140.5#160.81#183.02#202.64
649#19.47#39.37#60.5#79.66#113.4#133.54#152.84#171.09#189.85
650#13.14#26.9#48.97#65.44#89.84#114.32#143.77#166.53#193.68
651#17.77#32.53#68.57#84.91#100.88#121.23#139.3#165.26#186.49
652#13.03#38.04#64.18#80.47#109.5#133.21#157.59#172.23#201.35
653#13.35#34.65#48.29#71.16#92.6#113.15#138.58#160.65#187.17
654#21.99#49.57#68.28#92.72#121.62#141.1#157.58#177.33#200.98
655#23.61#46.18#71.61#92.28#111.23#132.63#157.76#180.53#199.73
656#20.8#39.26#63.87#84.3#111.25#124.71#165.2#180.22#195.17
657#29.28#52.74#65.64#80.53#106.51#128.25#151.14#176.79#200.41
658#23.39#51.4#66.66#90.54#120.16#139.31#158.93#179.76#207.69
659#16.7#54.56#80.12#98.39#119.88#136.01#156.04#179.62#201.22
660#22.6#44.92#71.91#90.15#117.24#130.87#153.36#177.48#194.87
661#19.17#52.75#77.47#96.95#114.23#136.52#161.44#172.49#195.78
662#25.96#48.61#67.16#87.89#116.4#128.1#154.51#173.45#193.99
663#28.52#54.0#81.25#102.44#130.06#145.34#163.73#178.67#193.41
664#22.59#48.72#68.79#92.06#103.55#123.12#142.51#174.41#200.25
665#20.76#48.13#72.82#95.76#113.5#136.19#151.16#170.59#199.82
666#20.53#36.39#60.49#80.65#95.98#122.77#136.8#174.23#192.09
667#13.97#34.07#59.81#72.56#94.7#118.08#149.2#164.79#194.17
668#12.56#43.03#65.38#81.65#104.93#121.55#143.67#171.91#199.71
669#21.6#37.03#69.52#84.45#112.1#143.14#165.27#180.39#198.24
670#17.25#36.25#60.52#85.11#105.4#126.15#142.22#171.39#197.33
671#16.59#37.12#66.57#92.36#112.11#133.5#166.83#185.1#202.09
672#14.5#39.67#58.15#78.96#100.29#126.09#151.8#170.21#191.95
673#20.47#45.56#66.92#98.5#123.17#141.53#160.06#178.3#207.38
674#19.44#40.2#70.58#95.85#112.29#136.18#159.49#176.41#190.5
675#29.58#41.87#64.57#87.16#113.63#136.57#151.19#167.45#188.23
676#16.27#43.62#69.55#89.14#105.27#127.62#148.76#175.45#202.15
677#11.45#34.89#55.94#86.08#99.13#130.03#154.23#169.77#189.92
678#31.36#50.85#77.65#108.84#126.86#145.25#160.27#185.73#206.69
679#21.94#36.17#50.29#75.89#101.26#123.23#144.19#168.39#188.45
680#18.42#28.14#45.11#60.61#88.62#107.96#136.31#167.83#199.76
681#21.98#41.23#70.19#97.14#114.29#143.2#157.81#177.83#201.98
682#22.2#45.19#58.75#81.16#99.03#118.63#142.13#158.78#182.28
683#16.36#34.76#56.73#80.9#112.38#135.63#154.67#183.06#199.33
684#18.57#35.81#55.61#82.05#103.07#116.99#140.79#161.81#183.16
685#29.94#54.21#71.07#84.45#104.91#130.16#146.89#170.18#191.22
686#25.35#48.08#65.78#87.1#108.26#136.56#153.63#178.55#198.54
687#22.73#43.39#70.44#91.87#114.24#134.04#145.37#168.88#195.3
688#22.95#45.76#70.94#93.97#112.82#133.32#150.12#171.04#193.69
689#23.03#48.72#68.66#89.37#113.62#139.54#160.81#180.38#199.9
690#20.94#39.54#63.27#80.41#101.17#122.57#150.18#173.9#193.83
691#18.93#41.33#68.0#84.62#102.19#135.55#145.48#171.76#202.65
692#17.22#51.95#68.18#100.98#113.87#140.48#167.41#184.6#202.9
693#23.96#40.19#69.6#80.32#111.79#124.1#152.55#169.52#195.32
694#18.97#42.21#80.45#106.11#119.6#135.8#154.17#175.35#193.39
695#21.1#34.95#50.81#62.92#90.21#110.75#141.71#168.39#196.15
696#20.27#40.54#58.11#83.0#104.09#134.16#164.15#183.67#203.07
697#24.75#52.61#72.66#96.42#118.07#144.67#160.06#186.13#201.98
698#9.25#36.75#65.54#97.38#117.71#139.64#165.75#181.36#197.23
699#16.53#33.91#55.88#76.26#99.25#120.03#144.87#165.35#193.07
700#21.12#37.79#70.93#97.32#119.7#141.5#156.58#170.6#193.18
701#28.31#45.8#66.4#90.5#113.66#138.48#163.06#188.49#205.15
702#8.97#43.21#61.94#88.99#113.36#137.99#155.78#177.3#192.85
703#24.14#47.35#62.35#84.9#107.35#132.39#152.3#179.23#200.97
704#21.35#49.2#70.98#90.65#108.51#129.25#158.94#176.53#195.56
705#15.23#30.97#52.48#80.4#112.29#130.39#156.64#182.32#202.77
706#19.39#44.53#70.24#95.38#112.0#128.76#164.32#182.72#195.1
707#12.6#42.37#70.11#86.61#110.85#132.45#159.43#178.57#205.92
708#20.36#43.01#58.26#78.56#105.29#135.2#157.82#174.11#206.06
709#19.09#46.72#76.03#98.55#119.07#138.58#160.93#182.92#201.42
710#19.07#37.51#63.16#79.23#107.28#127.58#147.75#180.39#198.84
711#14.89#32.07#51.03#68.8#97.23#117.15#143.31#165.92#185.33
712#11.35#30.2#45.83#70.84#96.41#128.81#159.45#180.83#199.7
713#30.79#52.62#74.4#92.47#111.29#131.54#153.64#169.66#198.47
714#12.46#32.65#57.19#89.84#105.24#127.76#142.15#167.95#202.33
715#19.34#40.2#66.77#98.61#123.75#144.47#172.77#191.84#205.12
716#22.09#46.23#62.21#76.85#92.1#118.62#144.13#162.44#182.63
717#12.15#52.24#78.77#95.93#117.56#135.54#165.51#178.5#198.62
718#20.37#35.93#58.44#81.27#98.7#130.63#157.93#186.39#199.82
719#30.59#58.13#69.49#90.03#109.25#130.47#156.99#173.29#192.48
720#27.07#43.0#60.49#76.51#100.64#124.31#152.55#170.98#194.18
721#19.13#45.65#83.53#100.55#117.78#138.02#159.89#184.37#207.14
722#15.27#24.0#57.98#82.35#108.89#124.57#141.59#167.02#196.61
723#15.9#40.38#56.09#76.78#100.93#130.96#160.58#185.68#197.9
724#10.15#26.31#51.28#81.44#100.22#124.88#144.32#176.09#193.14
725#23.13#43.64#67.3#84.01#107.02#130.31#155.49#180.05#196.63
726#17.4#41.04#61.9#79.98#113.36#139.19#162.09#182.31#194.85
727#15.98#48.98#67.62#85.66#105.98#126.44#155.15#182.72#204.44
728#10.89#47.95#65.04#85.92#107.15#131.19#150.35#170.59#200.58
729#21.74#46.07#72.83#96.88#112.7#133.57#151.74#174.63#192.65
730#21.11#50.14#77.28#95.03#119.09#133.44#150.8#172.49#189.19
731#10.88#33.0#56.62#77.67#101.81#127.45#150.94#171.12#195.99
732#17.9#36.9#65.67#78.73#105.21#134.5#158.29#175.42#203.49
733#40.89#53.46#71.47#91.55#113.35#131.62#153.26#182.57#199.34
734#19.69#44.83#68.44#85.06#103.27#122.26#154.68#169.41#192.49
735#19.01#36.03#54.15#72.91#98.72#131.94#150.23#173.85#202.91
736#23.39#45.88#70.99#95.08#113.15#138.72#153.9#172.15#200.57
737#19.93#40.86#70.38#89.81#108.86#128.44#157.3#180.69#204.37
738#20.91#33.73#59.51#82.0#107.17#131.82#146.13#171.69#195.92
739#20.25#39.68#51.54#79.68#96.08#119.23#142.9#170.35#197.34
740#29.25#43.22#63.11#95.16#113.77#133.76#148.43#170.46#196.18
741#17.14#33.53#63.08#89.39#111.43#129.0#155.99#173.68#192.13
742#17.29#37.47#63.0#80.25#103.31#128.87#158.16#175.59#201.35
743#21.0#39.0#72.52#98.4#122.52#136.73#155.09#181.78#200.89
744#23.28#41.85#59.66#82.82#99.44#119.92#142.2#163.3#196.0
745#18.89#37.45#67.78#89.09#112.32#131.64#157.41#180.66#192.29
746#27.6#54.69#73.98#95.13#110.27#132.0#154.46#179.91#198.21
747#20.76#37.22#56.89#73.54#98.87#125.36#155.62#172.88#196.26
748#20.58#45.77#64.07#82.71#104.96#128.07#150.05#173.64#199.59
749#33.43#65.39#89.94#113.8#131.06#146.34#164.43#187.34#200.98
750#19.44#40.94#63.12#79.61#102.54#129.88#145.56#172.29#188.49
751#32.43#48.97#69.92#85.15#106.01#126.17#148.87#169.99#199.01
752#22.49#42.08#58.7#86.38#103.04#119.54#140.53#172.79#189.99
753#14.97#42.86#64.99#91.06#107.03#129.4#148.39#169.1#191.99
754#19.52#40.76#65.61#90.4#107.43#131.49#156.87#173.87#197.0
755#20.55#47.58#67.68#82.43#112.53#134.33#152.06#176.01#198.06
756#11.72#36.15#64.87#86.29#116.9#141.86#156.94#186.18#203.53
757#20.01#42.83#75.37#97.75#121.45#145.4#163.12#181.95#194.31
758#23.31#35.27#60.8#99.61#122.5#145.55#162.66#178.6#194.14
759#22.19#38.19#70.54#91.14#110.25#132.09#170.92#186.86#206.69
760#25.47#60.73#89.53#106.14#123.33#148.71#165.28#174.77#195.14
761#14.49#34.4#56.84#78.21#103.12#124.6#157.54#181.88#196.55
762#14.07#35.86#62.33#84.14#106.35#120.78#147.49#167.06#197.62
763#23.1#41.42#56.26#74.2#96.53#115.94#142.45#172.75#195.94
764#15.36#37.5#62.23#85.42#112.78#126.46#141.98#163.17#181.73
765#24.55#42.04#60.74#78.51#110.83#132.31#150.38#171.55#198.81
766#22.68#47.74#73.17#101.73#118.99#141.21#160.14#184.26#201.83
767#21.43#38.78#66.12#81.07#100.51#115.99#142.21#169.05#196.97
768#13.84#32.95#48.44#74.54#96.51#121.79#149.92#164.94#194.59
769#28.43#44.68#75.65#93.21#118.5#140.38#164.17#184.58#205.24
770#12.79#57.64#75.47#100.15#108.38#126.18#145.76#176.65#202.7
771#27.14#50.75#77.98#93.1#111.88#135.92#148.92#168.94#185.41
772#20.05#42.66#68.92#96.03#121.62#132.04#151.68#171.2#199.26
773#18.98#34.07#61.06#89.78#113.84#135.66#154.85#177.66#194.76
774#25.37#38.27#65.22#79.51#104.11#132.11#159.85#178.41#202.91
775#15.47#42.92#67.87#81.42#97.6#120.2#146.23#179.54#204.27
776#21.09#51.03#69.46#91.52#116.06#140.58#158.35#179.51#191.58
777#18.37#40.82#58.94#79.31#112.52#130.59#151.69#165.73#198.65
778#16.3#37.17#61.63#79.38#102.72#122.97#150.09#175.6#201.29
779#18.48#38.91#59.02#85.17#99.88#128.71#153.92#170.57#193.15
780#10.57#25.1#47.8#71.12#93.11#114.78#152.04#167.34#200.94
781#20.14#38.14#55.67#90.44#114.62#133.62#155.79#169.71#198.37
782#29.49#51.31#72.6#85.6#110.06#135.17#156.98#179.18#190.88
783#9.49#29.31#53.89#74.34#93.05#112.86#147.52#166.07#195.29
784#19.0#46.15#79.57#98.44#126.7#145.52#159.52#184.43#197.35
785#25.11#45.06#68.65#87.6#99.51#116.3#136.57#166.97#204.84
786#24.89#42.1#64.46#84.44#105.83#132.28#152.3#177.68#196.34
787#23.96#46.1#66.09#79.33#109.49#139.77#169.5#185.57#200.79
788#16.09#35.17#57.47#82.87#102.63#120.39#141.24#166.04#198.39
789#14.87#41.0#59.23#74.24#95.78#118.54#143.38#170.63#198.68
790#24.68#45.55#62.07#86.82#104.0#133.75#153.04#170.4#188.97
791#24.45#49.36#73.09#98.3#122.42#145.23#161.58#180.7#196.09
792#18.14#43.16#65.19#86.1#110.96#130.97#154.48#171.58#197.88
793#19.6#41.44#64.99#88.12#116.57#131.57#150.68#167.71#199.88
794#21.91#41.55#73.11#91.8#115.57#130.07#155.79#175.45#201.38
795#18.78#50.25#69.0#87.73#108.22#130.01#152.02#176.15#201.26
796#24.62#43.54#59.66#70.04#88.31#105.26#138.8#162.76#197.17
797#14.72#35.7#61.4#83.54#100.45#125.33#142.53#164.09#195.26
798#15.3#28.79#48.37#78.75#112.27#139.95#153.8#173.13#206.28
799#23.58#48.04#72.22#95.45#114.59#136.7#154.39#179.34#203.88
800#23.71#33.41#52.89#75.74#89.8#118.24#141.02#162.7#185.13
801#19.09#35.55#61.78#83.65#101.58#121.78#138.02#162.42#188.38
802#23.15#42.4#64.33#91.71#110.45#140.11#155.82#172.92#193.41
803#10.52#39.74#70.31#103.41#120.84#132.3#150.32#175.81#201.2
804#6.56#26.13#51.25#68.07#100.87#135.02#162.61#177.15#195.94
805#34.27#44.88#60.59#79.8#101.59#131.24#148.4#173.36#203.23
806#17.17#44.58#66.45#90.0#116.54#132.47#163.03#177.82#195.91
807#16.92#37.99#73.15#91.83#111.39#132.89#161.32#181.26#200.14
808#19.78#46.81#71.09#85.52#114.22#136.24#154.77#172.34#193.8
809#31.68#47.81#65.42#88.39#113.32#135.07#149.48#180.59#198.13
810#15.07#34.64#58.79#80.48#101.74#130.45#148.51#172.33#196.77
811#24.04#49.96#65.76#82.33#107.37#127.07#155.87#177.62#201.26
812#14.78#44.27#74.29#96.32#118.48#140.12#165.33#188.27#201.79
813#25.16#49.28#66.21#81.77#97.47#129.69#155.42#176.08#189.8
814#13.84#36.98#53.1#75.54#98.54#118.55#141.18#172.16#199.08
815#18.62#42.77#60.8#76.64#102.5#121.05#156.65#176.7#200.59
816#26.13#54.93#73.62#93.02#111.17#122.9#144.37#170.2#190.18
817#23.62#38.39#61.12#88.73#105.7#129.61#155.78#180.32#202.37
818#14.96#40.96#63.0#92.96#116.8#132.52#150.5#183.62#205.46
819#15.97#39.83#56.89#77.88#103.22#116.39#147.01#159.83#185.3
820#21.05#43.59#57.0#82.87#109.23#136.58#158.64#175.53#199.41
821#15.07#41.31#73.94#97.98#119.04#155.77#169.95#184.1#199.16
822#16.77#40.6#56.94#69.46#92.06#118.12#153.5#174.02#193.4
823#22.21#49.46#82.4#92.12#116.06#141.56#160.2#178.6#207.31
824#15.21#35.18#56.44#74.91#95.75#115.18#153.38#173.52#197.52
825#17.48#43.27#60.47#88.33#107.4#126.84#154.52#170.71#193.83
826#22.14#39.01#63.8#80.41#103.65#122.07#144.51#165.79#191.71
827#15.1#41.0#61.13#81.05#102.58#134.27#151.68#175.74#199.82
828#15.54#37.02#66.02#82.35#102.27#120.98#145.77#171.2#187.25
829#28.94#53.79#75.83#98.74#114.75#134.44#164.08#179.46#192.91
830#23.31#45.21#59.29#79.92#98.0#118.2#138.32#157.32#195.12
831#20.75#36.15#62.07#79.41#108.98#124.91#150.51#174.34#201.65
832#21.58#42.21#59.35#82.49#97.59#122.52#144.54#174.13#199.75
833#14.67#42.2#61.45#92.01#113.89#130.55#166.43#177.22#199.96
834#22.51#46.58#64.37#97.7#120.6#145.74#162.87#184.9#205.1
835#22.75#41.54#62.33#83.12#101.36#123.68#139.0#175.25#188.02
836#13.68#43.72#60.38#79.15#95.29#124.05#145.47#170.83#188.0
837#23.47#46.67#68.19#93.05#117.32#133.43#148.5#170.88#198.1
838#18.56#34.64#73.81#97.54#125.24#137.7#154.44#172.77#194.69
839#23.47#46.39#63.24#84.39#93.23#109.42#142.99#165.69#201.71
840#29.4#50.65#67.62#81.62#99.73#124.18#152.16#165.25#192.11
841#21.71#50.7#67.48#85.58#116.02#135.23#146.72#172.84#193.13
842#20.77#43.03#68.17#100.97#115.81#134.94#156.47#174.07#192.6
843#28.44#49.55#64.53#89.38#108.0#127.47#153.37#176.05#199.47
844#15.05#44.9#70.94#90.47#108.74#137.13#161.38#173.96#193.66
845#22.49#39.99#58.04#80.32#99.67#134.56#161.26#180.22#192.11
846#14.36#31.77#54.87#74.79#95.8#121.44#148.25#171.49#190.15
847#30.22#45.14#65.78#97.43#117.06#133.19#152.81#176.86#201.17
848#22.79#40.93#67.39#98.9#119.71#132.96#147.68#179.83#206.16
849#13.9#40.57#59.45#83.34#114.26#138.6#157.39#176.78#195.39
850#33.95#48.09#71.43#89.95#117.59#138.56#160.39#184.54#203.31
851#16.51#42.91#67.91#94.06#114.63#138.19#157.77#177.7#198.92
852#15.58#40.19#60.32#74.23#96.05#114.38#138.79#172.1#196.54
853#23.33#33.34#53.28#78.78#102.25#122.99#148.87#177.66#196.61
854#36.61#53.09#76.63#101.88#123.51#140.71#165.05#189.03#205.43
855#21.25#42.42#57.04#75.18#91.68#115.74#141.72#165.63#184.95
856#18.9#35.87#51.58#79.01#104.9#142.38#158.63#173.27#197.14
857#16.87#37.6#56.52#90.17#106.08#133.97#149.42#172.24#197.27
858#13.16#38.84#57.03#81.86#103.0#123.82#148.55#173.27#194.88
859#17.19#36.55#53.68#70.96#97.11#130.51#163.96#182.58#202.98
860#25.19#46.68#64.0#88.98#111.16#138.26#148.04#177.56#199.15
861#23.44#51.45#65.68#87.89#107.01#128.82#152.82#174.53#200.57
862#21.01#39.54#69.24#81.89#106.2#138.53#159.26#183.88#202.07
863#15.59#40.06#61.31#95.78#107.92#128.63#150.25#167.35#193.46
864#18.47#47.19#73.17#88.1#118.72#143.55#164.74#179.43#198.26
865#20.15#39.66#56.05#78.44#104.03#126.06#149.64#167.46#196.7
866#23.62#41.68#69.31#85.74#113.21#138.74#156.96#182.18#202.72
867#16.43#38.66#56.21#87.5#111.21#134.38#156.62#176.16#195.48
868#17.5#54.63#82.74#107.41#124.21#141.81#169.0#182.25#208.72
869#16.03#38.89#62.87#78.37#92.92#112.85#132.43#165.43#193.3
870#18.57#28.67#46.39#73.05#101.52#123.28#143.92#168.58#194.45
871#15.31#43.06#68.35#95.74#111.06#131.78#153.76#172.31#203.21
872#24.9#47.24#62.92#87.3#108.41#124.51#145.18#172.29#197.99
873#20.95#42.8#60.51#77.39#106.37#134.27#146.53#166.53#198.81
874#16.22#43.52#64.75#87.3#96.36#115.81#137.12#175.64#193.28
875#15.28#37.04#57.11#86.85#120.05#145.68#161.55#182.79#197.82
876#15.8#38.35#55.46#83.75#103.78#129.98#151.63#164.66#185.9
877#22.54#46.6#72.52#96.6#117.0#141.82#160.09#172.76#204.52
878#22.51#50.92#73.36#101.89#118.1#145.34#168.25#181.51#201.56
879#31.86#51.15#70.47#97.27#112.7#139.56#166.25#181.32#200.2
880#14.8#30.69#60.98#81.19#95.68#118.78#137.74#159.88#189.74
881#22.42#38.97#63.88#82.45#106.28#127.71#156.24#169.52#198.34
882#12.65#29.92#49.2#70.56#87.57#108.82#129.86#159.15#182.3
883#17.65#55.86#77.93#94.84#120.09#135.55#153.26#186.2#198.12
884#21.16#36.23#60.17#85.7#100.48#114.05#135.59#167.56#197.54
885#22.81#46.07#62.9#83.91#122.56#142.2#158.93#179.76#200.68
886#18.13#37.88#57.65#75.55#105.07#117.47#141.8#172.78#205.89
887#19.75#39.62#59.79#87.51#113.82#129.68#151.84#167.55#195.24
888#23.65#43.0#69.14#91.44#116.99#141.26#154.76#176.41#197.25
889#19.74#40.8#55.02#86.01#113.75#144.97#163.57#187.27#197.99
890#33.08#52.91#77.04#96.31#129.71#145.85#163.21#184.21#202.13
891#27.02#41.81#69.04#86.04#106.02#130.57#150.87#173.94#200.46
892#24.34#44.58#68.05#89.72#118.32#136.28#153.6#173.73#191.31
893#15.03#29.65#55.99#80.52#113.93#140.34#154.84#174.13#202.26
894#21.05#44.1#63.32#85.1#107.66#124.76#150.21#170.24#208.52
895#24.95#44.38#64.62#90.86#110.35#143.6#163.06#184.74#206.8
896#24.12#49.24#63.33#82.96#99.03#117.87#141.62#166.37#197.98
897#22.65#48.5#70.08#93.65#118.85#131.08#152.54#172.02#193.12
898#26.53#43.82#56.92#79.52#98.6#131.43#146.31#169.06#196.26
899#19.08#37.98#55.35#80.55#94.43#118.24#153.02#169.99#197.43
900#21.4#42.93#67.81#85.21#101.63#130.93#151.74#171.45#201.25
901#17.71#41.01#59.84#83.92#116.9#133.75#146.3#164.64#182.76
902#17.27#44.06#60.93#82.81#104.43#126.59#161.36#180.86#200.64
903#17.48#30.96#72.22#84.29#120.72#141.66#155.64#182.61#197.38
904#16.59#38.5#58.96#82.51#109.97#131.85#144.68#172.32#196.61
905#20.47#45.28#72.93#92.55#113.53#132.75#152.34#176.29#199.41
906#17.07#38.79#63.27#78.78#96.17#119.17#138.66#164.97#199.99
907#18.65#44.12#71.44#88.73#108.23#131.81#150.15#170.24#193.42
908#24.27#44.45#60.84#90.83#118.37#144.6#167.16#179.6#194.9
909#19.47#54.11#70.28#95.2#119.34#136.37#148.69#172.47#204.67
910#24.58#49.39#78.56#89.02#113.42#129.5#159.86#176.29#198.87
911#28.54#49.05#62.85#87.59#106.7#128.05#145.42#162.8#192.61
912#26.68#57.02#81.48#95.94#110.88#138.2#155.44#181.69#201.83
913#23.29#55.83#77.31#100.93#121.27#140.27#160.25#179.5#200.52
914#19.32#42.49#60.97#80.21#97.08#116.32#127.09#160.73#196.99
915#15.96#32.46#49.79#73.86#89.57#115.93#139.58#164.54#190.33
916#22.64#46.45#63.0#84.87#105.79#127.85#149.59#164.02#192.13
917#20.86#46.78#71.05#88.09#113.8#144.81#172.88#184.44#202.0
918#18.6#35.7#60.86#82.37#97.01#117.69#146.09#176.39#195.47
919#27.48#46.97#73.6#92.51#112.09#129.1#159.97#181.27#202.06
920#12.79#37.3#58.08#74.95#99.05#121.91#152.41#177.0#193.4
921#25.17#44.39#66.15#93.59#107.38#129.72#156.16#178.57#196.73
922#26.69#47.91#70.36#93.71#110.5#128.08#143.12#181.54#200.12
923#27.39#44.33#70.19#94.42#111.74#133.53#150.7#181.18#201.23
924#23.73#43.37#65.79#91.96#106.69#127.14#160.08#183.77#198.99
925#16.61#43.66#72.02#108.25#126.18#144.44#155.54#166.8#192.81
926#25.31#55.68#75.47#92.49#113.06#130.23#157.94#175.68#196.85
927#18.66#35.57#59.28#76.3#114.05#138.29#151.87#168.4#194.77
928#22.92#42.11#56.96#84.96#105.21#123.25#142.87#169.06#189.36
929#17.97#36.3#57.93#79.58#103.15#118.43#145.16#171.94#194.84
930#21.77#54.14#75.62#90.62#110.31#125.9#143.43#163.89#193.02
931#22.95#46.49#64.06#94.38#114.9#126.05#140.25#180.91#203.01
932#25.1#53.77#72.81#84.66#110.08#129.17#154.11#176.78#197.12
933#17.29#49.68#59.6#77.39#102.31#125.92#153.54#181.87#200.89
934#16.02#39.43#60.75#83.83#108.76#132.17#154.55#175.01#199.59
935#22.08#44.31#63.75#88.75#103.72#138.91#157.06#186.6#203.89
936#30.49#54.68#69.71#83.49#104.73#129.25#143.06#169.44#194.88
937#17.14#41.32#64.32#89.73#114.9#130.64#154.23#173.51#197.34
938#19.34#41.02#58.97#93.84#113.91#139.52#158.84#181.42#197.1
939#15.85#33.17#50.42#69.81#96.63#127.73#151.51#173.28#191.43
940#27.07#48.28#73.52#95.86#116.1#140.92#153.02#183.37#199.55
941#10.69#33.58#49.55#78.59#100.48#112.87#151.34#166.49#185.53
942#19.06#42.13#65.59#89.5#117.25#136.38#151.46#169.83#200.03
943#21.02#43.16#65.81#88.96#105.87#123.72#152.37#175.58#189.81
944#25.67#43.36#61.76#80.44#103.22#125.69#148.52#166.96#185.35
945#17.89#40.7#60.35#74.26#102.78#125.71#144.32#165.73#193.6
946#17.23#45.24#68.51#95.57#125.88#159.48#173.89#185.21#199.26
947#27.39#47.62#71.09#92.66#104.89#121.26#143.72#173.15#198.78
948#16.05#34.64#51.76#76.6#93.42#121.25#146.99#170.44#192.94
949#11.98#47.73#66.4#90.8#107.68#130.37#149.63#166.06#198.84
950#18.85#38.38#56.13#69.9#95.12#118.83#145.19#173.48#196.71
951#10.1#39.75#69.94#86.6#109.96#130.35#161.12#175.14#197.11
952#26.32#43.83#62.96#84.68#101.41#124.36#141.8#158.41#195.39
953#16.32#35.45#59.53#85.54#106.74#124.38#143.91#180.68#201.3
954#26.88#57.31#72.36#95.96#111.32#138.38#162.04#174.89#200.14
955#31.12#50.38#74.2#94.34#119.71#141.95#155.92#177.59#196.51
956#16.96#29.02#47.11#70.68#101.58#121.09#146.89#166.91#192.64
957#22.09#45.18#76.99#98.06#113.52#130.61#153.35#173.87#196.15
958#25.42#50.39#77.22#97.23#120.82#136.85#164.91#187.01#204.64
959#14.03#29.6#54.72#81.32#99.97#128.65#152.51#182.13#203.79
960#22.9#45.58#76.65#97.69#121.81#143.33#166.23#181.86#199.01
961#33.09#52.97#71.22#89.42#109.33#125.92#160.2#179.69#198.07
962#17.1#41.52#75.35#89.56#110.1#129.56#156.5#182.58#204.97
963#17.1#54.53#76.67#101.45#120.98#144.6#158.97#177.34#195.92
964#21.28#45.24#65.77#83.58#112.36#139.08#158.32#180.41#202.9
965#15.42#35.47#57.37#71.3#91.49#115.77#144.92#164.51#191.8
966#16.43#52.89#65.95#93.26#107.86#133.52#156.13#171.01#200.54
967#14.81#44.4#60.47#89.95#119.84#143.11#159.33#181.38#208.37
968#19.23#45.15#60.21#87.92#97.26#122.88#145.99#174.2#193.8
969#23.54#46.1#67.33#90.02#111.48#135.65#157.58#177.59#199.39
970#24.71#37.17#52.1#72.27#101.42#125.66#150.48#163.58#195.16
971#17.16#40.22#64.46#98.98#117.51#134.32#154.68#176.96#194.81
972#20.46#43.36#65.26#76.73#97.54#115.95#139.54#166.28#190.89
973#18.41#43.95#67.88#90.04#105.35#127.26#146.88#171.47#190.95
974#23.66#41.91#61.14#87.25#103.09#122.08#150.15#173.38#191.84
975#12.47#24.12#49.52#76.02#101.41#119.46#156.33#179.42#196.98
976#16.13#46.2#64.4#94.03#117.05#136.09#158.21#174.2#196.26
977#13.9#34.18#47.01#68.16#85.99#101.24#117.52#145.99#191.89
978#25.32#41.51#69.39#85.21#108.83#130.13#144.33#168.83#188.36
979#25.11#52.36#79.33#100.72#115.17#130.8#147.46#166.04#183.95
980#21.78#45.25#59.79#77.36#95.09#120.19#146.32#170.88#195.98
981#20.18#32.06#57.72#82.76#110.25#137.9#156.32#167.01#191.1
982#16.29#34.1#54.13#78.53#107.49#123.53#149.35#165.88#189.21
983#24.09#41.08#68.82#90.55#110.68#133.15#145.44#164.07#196.56
984#17.02#29.35#49.37#82.06#108.08#130.59#146.33#177.74#197.28
985#26.38#60.74#80.8#105.51#123.76#139.31#160.13#172.55#198.19
986#13.02#40.41#74.42#92.58#115.08#134.23#153.65#180.1#200.18
987#16.06#34.18#53.67#69.71#89.4#110.18#140.24#168.85#195.82
988#19.14#34.76#60.27#79.13#93.06#117.44#136.71#159.64#193.15
989#15.56#37.02#61.45#82.84#103.04#118.57#151.03#182.11#199.29
990#24.53#45.66#63.34#75.87#95.51#113.04#161.8#180.84#195.53
991#22.79#46.89#71.25#109.41#133.92#147.91#171.75#183.45#202.85
992#15.38#34.31#52.41#67.85#88.02#104.62#137.78#157.66#195.15
993#19.43#46.24#63.44#87.23#109.13#146.16#167.85#181.75#199.35
994#16.42#38.12#70.71#86.17#114.12#141.85#163.81#180.74#197.04
995#18.12#47.86#62.97#85.0#112.43#136.5#157.81#185.52#211.45
996#28.06#49.77#73.26#95.68#122.92#149.03#163.17#180.03#195.08
997#17.22#34.8#56.17#88.32#116.53#136.92#155.52#181.68#200.86
998#22.52#49.74#63.35#85.41#108.57#142.74#158.44#177.13#202.16
999#19.6#41.32#58.48#77.69#109.96#123.57#147.27#174.94#195.1
1000#18.41#46.36#83.26#104.4#115.58#136.39#152.21#173.06#201.37
1001#11.21#35.89#51.82#76.73#106.15#121.17#143.12#171.81#192.2
1002#27.23#42.71#52.51#72.83#95.34#121.96#146.45#172.94#196.46
1003#28.4#42.02#62.76#92.44#108.3#127.85#153.88#175.13#193.93
1004#16.34#40.99#58.56#88.03#111.77#136.24#157.45#175.4#198.44
1005#28.65#51.91#73.9#97.23#109.81#133.35#149.9#179.23#196.23
1006#20.84#48.41#66.63#89.25#110.76#124.79#141.69#169.24#187.26
1007#31.01#55.06#75.66#99.69#115.24#132.91#159.1#172.14#193.44
1008#22.85#43.48#64.98#91.67#113.14#139.04#155.94#174.45#190.98
1009#10.39#34.46#55.68#78.3#100.25#121.59#151.15#176.06#201.02
1010#31.83#51.02#70.15#80.95#109.89#127.28#152.53#178.93#199.28
1011#22.89#47.57#71.38#90.06#110.32#137.57#153.88#173.68#192.42
1012#20.6#52.68#66.62#91.25#110.75#137.13#154.26#182.15#200.28
1013#17.17#48.6#67.07#83.76#109.73#136.61#151.5#169.03#200.61
1014#24.96#45.35#68.78#87.58#108.85#130.75#160.13#172.26#188.59
1015#14.33#48.94#69.13#87.13#110.25#129.97#151.68#172.32#200.39
1016#32.51#51.87#66.98#89.17#120.87#143.72#161.32#179.76#199.79
1017#24.73#39.72#56.6#80.73#107.51#127.27#154.46#174.05#196.78
1018#18.09#39.64#61.1#85.65#115.33#131.8#147.2#171.49#201.6
1019#28.06#52.86#74.51#95.54#119.27#144.08#159.42#175.9#204.78
1020#13.23#45.85#65.42#86.7#100.98#117.24#144.36#170.18#191.13
1021#20.74#43.48#66.34#90.61#107.35#135.34#155.73#173.67#195.78
1022#18.44#40.12#61.04#82.63#98.45#129.72#152.4#171.57#194.56
1023#18.78#42.66#59.26#89.12#108.03#125.63#143.35#156.66#191.2
1024#30.69#56.14#76.62#97.24#111.28#129.65#153.83#171.81#195.97
1025#20.75#48.91#92.9#111.4#131.18#143.75#161.76#190.07#206.83
1026#22.1#44.7#62.1#85.73#106.08#127.02#150.45#173.78#199.79
1027#17.67#37.98#67.84#90.32#114.53#131.34#148.97#179.87#198.78
1028#26.1#47.57#68.65#81.54#105.54#134.67#147.58#164.62#195.24
1029#12.53#37.11#58.87#75.13#103.59#123.36#151.07#170.37#191.75
1030#27.89#58.89#79.99#103.54#122.98#134.68#155.67#170.82#189.74
1031#21.11#36.79#67.16#95.46#110.83#132.47#162.59#174.8#203.83
1032#12.57#43.93#69.15#98.44#122.47#136.69#166.14#179.17#200.46
1033#28.48#45.16#63.01#76.58#100.63#126.32#153.38#175.86#192.3
1034#15.57#43.51#62.66#84.3#110.1#132.06#158.33#170.74#190.12
1035#22.89#44.93#68.73#84.44#116.47#141.88#156.2#183.17#204.29
1036#17.42#41.98#66.44#87.4#103.0#128.71#153.49#167.33#195.81
1037#20.17#39.06#67.11#83.36#114.77#132.94#153.86#170.26#188.92
1038#18.43#39.01#53.3#78.51#104.98#122.53#140.11#157.78#184.33
1039#16.9#33.67#56.26#78.65#107.09#127.53#155.65#182.76#201.41
1040#25.77#54.93#73.58#91.13#106.28#137.39#151.22#170.29#192.92
1041#22.09#37.85#58.65#78.77#96.36#121.23#147.29#174.15#194.8
1042#26.68#55.07#88.17#100.32#120.26#141.89#158.37#175.9#196.23
1043#20.99#37.71#62.3#82.35#103.51#123.56#157.39#180.38#198.97
1044#22.76#48.67#75.98#101.2#120.94#138.97#155.34#169.63#195.39
1045#18.59#38.92#57.58#76.08#95.48#114.65#138.97#174.62#203.19
1046#14.21#36.82#58.71#100.58#123.76#143.53#155.35#172.84#193.96
1047#12.0#31.06#55.48#81.79#107.18#127.89#155.67#185.62#204.63
1048#17.54#30.04#64.36#80.3#99.98#121.25#143.45#174.04#195.26
1049#18.26#47.42#70.31#87.82#109.93#129.12#154.98#177.73#197.19
1050#23.06#44.0#77.92#105.2#121.05#144.7#160.18#182.49#204.69
1051#20.83#46.3#63.79#89.04#114.4#135.47#161.52#185.1#195.0
1052#29.27#56.91#78.0#94.61#116.97#136.07#160.51#190.2#205.47
1053#14.09#27.82#58.24#85.94#104.03#125.7#148.24#169.42#199.69
1054#26.0#47.79#72.91#92.69#110.39#132.38#151.87#174.82#199.48
1055#19.74#47.79#72.0#90.38#107.07#130.07#163.51#181.29#206.9
1056#16.68#43.16#75.82#102.78#119.98#141.9#158.67#175.84#194.71
1057#27.21#56.18#83.03#101.17#129.15#143.93#159.02#180.0#194.04
1058#15.44#45.48#70.19#87.29#106.96#129.57#154.57#179.05#197.76
1059#26.05#55.77#79.18#94.74#113.3#138.67#169.64#188.66#202.63
1060#22.53#49.05#59.89#79.3#108.0#126.15#136.06#169.89#198.66
1061#20.86#33.56#48.81#78.78#98.22#120.23#148.42#169.71#193.45
1062#16.95#36.51#71.52#92.91#118.31#136.29#154.33#172.83#199.95
1063#18.36#33.11#52.78#77.68#93.58#129.56#157.57#178.69#200.1
1064#21.07#43.58#62.66#96.71#126.86#145.45#163.4#182.89#200.32
1065#28.69#52.48#63.61#94.57#120.19#138.63#155.6#188.46#202.2
1066#20.82#35.87#58.46#76.26#100.17#128.92#156.22#177.88#194.56
1067#19.04#45.37#66.03#90.63#109.96#124.54#136.31#157.09#188.43
1068#19.02#38.0#70.18#89.12#110.95#125.73#144.74#168.47#201.64
1069#21.97#35.31#67.45#97.62#112.4#138.25#158.27#182.8#205.85
1070#13.12#28.41#52.28#73.0#99.95#123.52#143.11#173.14#190.88
1071#13.16#26.33#48.21#70.49#91.0#117.65#138.95#168.78#197.84
1072#25.67#36.62#62.88#83.69#110.04#135.76#150.57#175.58#187.2
1073#20.83#49.3#74.44#93.66#104.68#135.79#154.21#181.45#199.32
1074#23.81#47.26#68.99#97.69#116.51#128.98#147.58#178.93#201.46
1075#20.43#44.07#72.45#89.56#109.82#126.38#148.2#170.36#199.43
1076#11.37#31.0#58.74#77.26#101.27#121.26#151.58#181.03#198.62
1077#12.45#29.71#51.02#72.82#97.34#119.48#147.25#178.53#198.27
1078#14.73#35.59#52.08#76.11#102.7#124.46#141.03#174.41#198.75
1079#13.12#31.1#48.09#76.29#89.86#109.46#129.04#174.39#201.38
1080#16.05#41.52#65.1#78.48#98.05#125.09#147.37#170.89#195.67
1081#15.84#46.21#67.67#90.44#115.11#129.98#150.11#180.88#201.03
1082#33.05#54.3#69.17#88.71#110.85#134.11#166.24#184.85#201.13
1083#18.1#32.2#56.2#70.89#94.59#118.79#140.51#166.27#193.44
1084#24.4#46.88#73.56#93.74#108.99#138.81#159.38#182.26#199.08
1085#25.18#44.35#56.2#79.55#103.37#131.81#153.09#177.72#197.74
1086#16.02#31.48#51.51#85.51#100.39#123.24#150.85#175.33#202.75
1087#21.17#42.53#66.56#91.55#109.9#125.63#143.53#173.06#198.55
1088#23.69#45.34#69.15#89.24#114.13#130.88#163.96#176.53#198.08
1089#13.75#32.79#68.42#96.26#113.82#132.59#163.46#183.62#195.83
1090#20.28#54.13#76.63#111.72#134.3#146.5#160.29#185.19#199.41
1091#22.8#55.19#73.4#90.97#115.64#146.15#164.6#188.68#201.41
1092#17.03#33.32#51.77#76.7#104.81#137.2#155.84#182.19#205.07
1093#16.87#42.33#62.26#84.4#106.13#125.06#144.87#170.69#199.32
1094#12.77#43.29#62.18#82.58#110.89#128.6#144.22#167.7#182.58
1095#19.28#33.3#55.15#76.41#99.67#122.37#145.49#173.94#192.34
1096#16.43#47.09#74.63#96.8#114.73#131.03#151.48#169.53#199.97
1097#15.17#40.0#56.39#73.6#92.21#117.22#143.71#174.13#190.7
1098#24.39#41.32#64.59#84.45#106.96#127.8#147.25#177.99#197.01
1099#23.4#41.99#61.2#87.69#102.68#125.89#154.8#175.29#197.7
1100#17.2#37.74#64.35#80.76#92.46#109.58#137.02#165.46#191.05
1101#30.38#53.32#75.99#102.57#124.93#138.06#163.58#187.54#203.12
1102#15.04#29.05#49.79#69.27#93.47#109.32#134.23#164.22#185.9
1103#24.98#60.32#74.08#100.29#120.63#141.23#166.22#181.01#191.08
1104#16.05#31.5#55.34#83.84#103.09#129.01#160.54#183.12#200.82
1105#12.35#32.77#67.51#85.91#105.39#129.27#151.62#166.08#196.52
1106#23.67#47.51#68.79#90.24#118.73#138.88#149.1#173.05#193.36
1107#21.79#42.71#70.2#84.33#104.94#125.57#144.88#174.76#197.82
1108#10.15#27.09#50.0#71.0#98.75#126.4#144.43#165.96#191.49
1109#20.18#46.48#62.4#95.06#105.72#125.69#156.16#176.0#195.71
1110#16.27#30.76#52.63#75.86#98.01#118.23#143.33#161.53#186.47
1111#28.43#47.75#64.2#86.65#116.19#139.14#159.53#175.34#197.86
1112#22.06#52.0#82.85#98.33#113.97#141.49#165.26#178.46#196.04
1113#20.6#46.65#70.38#84.08#110.01#136.25#161.77#170.36#190.68
1114#22.81#44.26#65.26#95.41#113.66#132.89#160.2#184.14#201.87
1115#23.88#40.82#58.27#89.15#116.81#142.02#158.89#182.47#197.81
1116#22.6#41.11#80.7#99.61#126.22#148.93#163.47#180.41#201.0
1117#18.0#44.5#64.74#93.38#113.8#131.88#149.38#180.98#203.9
1118#15.68#37.07#57.04#81.02#97.46#126.85#153.17#169.97#197.39
1119#25.94#48.87#72.62#87.63#102.99#128.94#148.49#175.52#196.28
1120#22.33#41.34#62.6#94.89#118.13#138.74#155.37#170.1#191.96
1121#17.89#38.56#60.21#79.42#101.64#126.18#152.19#174.5#191.63
1122#23.9#47.32#70.66#98.88#126.57#139.33#159.1#185.19#203.06
1123#12.99#41.11#60.46#75.68#104.26#126.98#157.99#183.99#208.58
1124#29.06#50.14#72.49#92.08#114.18#130.85#148.62#168.93#190.74
1125#10.74#39.23#60.67#85.6#111.82#127.1#154.68#180.48#205.3
1126#28.87#49.56#64.61#89.94#109.62#135.57#150.81#174.79#203.17
1127#18.48#41.41#60.73#83.55#104.87#129.67#145.02#167.72#198.66
1128#23.7#47.13#61.6#86.39#102.51#136.65#157.67#176.46#186.91
1129#26.66#48.53#70.71#94.01#114.8#127.92#143.06#162.69#193.68
1130#23.35#46.26#62.09#89.94#100.91#126.77#151.21#172.12#193.63
1131#17.1#29.82#53.11#82.16#102.5#125.29#150.13#172.83#201.71
1132#11.61#35.41#56.94#82.67#109.31#134.24#163.19#182.3#201.8
1133#16.54#41.68#67.68#87.83#112.4#131.72#149.77#177.71#200.69
1134#12.55#33.02#52.58#69.93#94.48#117.34#140.7#170.88#194.54
1135#15.94#36.7#58.12#70.29#87.42#109.71#142.38#177.54#199.8
1136#18.78#38.72#58.83#86.39#110.62#132.83#149.82#176.11#205.56
1137#11.79#35.61#59.39#86.09#116.14#145.76#169.25#188.47#201.15
1138#21.52#36.41#62.15#86.55#100.28#120.78#144.54#162.79#185.83
1139#24.66#52.2#70.2#93.94#106.04#132.32#151.21#181.35#201.71
1140#21.23#47.96#74.99#96.57#125.75#140.28#157.65#176.62#203.37
1141#38.84#60.52#80.03#106.16#124.42#145.55#164.22#183.49#195.22
1142#15.26#34.35#53.57#73.15#111.74#136.26#159.88#178.82#197.68
1143#19.77#43.0#61.93#86.76#108.67#135.6#164.6#177.71#202.61
1144#25.51#55.53#78.01#101.99#119.99#147.1#163.15#183.21#208.05
1145#25.56#46.81#64.32#79.81#94.65#116.1#133.07#159.65#188.86
1146#21.52#50.77#68.02#95.57#110.23#122.46#145.71#165.87#188.0
1147#21.71#53.43#78.35#109.09#128.71#153.22#168.44#183.67#202.86
1148#20.3#49.74#69.04#84.96#110.76#128.45#158.69#178.01#196.52
1149#34.9#52.89#71.8#88.55#111.42#141.16#158.56#179.12#194.76
1150#28.89#56.55#84.38#108.94#121.25#135.71#157.21#181.17#204.97
1151#29.35#45.15#61.81#82.4#116.37#140.69#157.67#183.4#199.93
1152#15.79#35.94#63.57#84.47#113.56#142.61#159.29#174.31#193.26
1153#15.48#40.04#67.29#99.58#110.25#129.24#158.08#171.03#204.8
1154#23.89#39.63#69.1#90.08#110.61#139.26#154.82#175.36#197.4
1155#20.3#34.52#66.39#86.79#104.1#128.59#149.93#176.64#201.19
1156#17.72#35.26#58.46#85.73#119.26#138.94#156.49#187.13#206.98
1157#19.08#41.99#58.72#87.64#115.91#137.35#170.53#185.17#204.05
1158#15.04#32.1#56.28#89.69#112.54#132.31#150.98#173.33#198.14
1159#15.65#31.15#50.66#81.92#104.91#124.44#137.97#163.34#198.21
1160#15.34#39.27#61.58#74.62#94.97#118.89#145.39#163.11#186.04
1161#20.93#39.92#72.71#98.67#112.82#130.26#151.1#179.8#193.05
1162#17.83#47.66#71.59#89.74#122.25#141.27#164.2#183.5#205.86
1163#29.68#53.53#67.92#85.14#114.24#138.22#162.42#179.05#197.27
1164#19.52#37.12#53.66#75.54#99.32#114.69#139.16#166.29#194.5
1165#19.41#44.38#61.56#84.18#99.61#122.92#143.91#170.9#195.54
1166#20.92#39.7#55.11#82.14#113.08#137.31#158.3#174.17#197.36
1167#14.03#37.46#74.02#100.09#118.3#134.91#148.72#178.81#201.01
1168#14.37#42.61#65.29#93.8#126.45#144.66#160.13#180.73#197.26
1169#23.41#40.25#71.94#93.32#107.28#134.53#157.77#178.71#199.87
1170#22.38#36.3#65.2#99.48#119.64#134.43#155.68#175.01#195.51
1171#15.41#35.1#50.2#76.19#97.68#126.04#142.27#164.25#189.82
1172#23.36#50.27#70.73#101.87#127.96#141.46#157.51#175.49#198.12
1173#26.1#47.79#67.57#87.1#101.75#114.15#139.03#171.85#193.4
1174#17.69#38.98#63.52#86.58#99.39#132.96#150.41#176.43#198.7
1175#14.58#36.74#50.53#75.65#99.25#117.37#134.93#164.92#187.56
1176#17.95#37.14#53.09#74.89#94.64#114.73#133.74#172.75#200.31
1177#23.48#38.74#68.09#86.8#115.06#135.84#161.64#174.07#203.16
1178#14.55#27.74#51.43#72.91#100.15#116.01#151.53#174.41#193.24
1179#18.54#43.81#65.11#95.47#116.14#126.77#153.98#173.09#194.47
1180#24.27#44.22#67.31#86.66#108.59#130.94#155.59#184.88#206.68
1181#17.55#41.04#62.65#82.82#108.18#128.33#150.27#168.87#192.9
1182#21.72#49.57#62.46#82.1#91.88#122.89#150.82#166.36#189.32
1183#14.78#38.36#68.61#95.66#123.68#138.81#158.97#177.01#197.1
1184#15.14#43.28#61.44#77.89#107.57#125.82#143.91#177.36#196.22
1185#31.18#49.56#68.21#88.82#113.5#133.53#159.32#179.89#200.65
1186#27.74#69.82#86.58#108.41#122.07#136.13#152.09#179.54#204.43
1187#24.05#44.13#69.78#83.37#115.73#125.85#143.06#176.18#195.99
1188#21.62#47.06#64.7#87.03#109.26#138.32#165.62#187.07#203.34
1189#12.82#43.36#57.76#97.81#117.21#137.01#165.63#185.92#207.11
1190#21.63#37.5#63.35#95.67#120.2#145.34#166.72#189.22#205.68
1191#16.3#40.5#52.88#82.38#110.52#135.03#151.21#169.5#199.78
1192#14.86#40.51#67.68#96.9#114.71#138.9#162.95#184.94#201.27
1193#17.93#34.06#74.57#96.97#127.76#147.92#165.57#179.15#199.42
1194#19.66#50.85#70.14#96.86#115.93#134.77#149.65#167.07#189.24
1195#27.52#43.19#67.04#81.16#95.11#122.57#142.93#169.51#194.75
1196#13.92#42.26#60.77#77.24#94.05#110.56#133.99#167.04#194.45
1197#21.24#45.67#68.86#90.83#107.48#126.1#145.61#175.97#193.4
1198#13.94#43.26#62.93#84.9#109.83#136.94#154.59#175.22#200.69
1199#20.93#45.59#62.16#83.57#105.39#128.22#149.25#180.8#200.62
1200#22.02#35.71#47.83#89.22#112.08#134.4#148.91#171.35#193.25
1201#19.24#39.28#66.87#81.67#109.27#129.44#152.59#174.98#190.21
1202#17.16#56.89#76.25#97.98#109.15#133.16#145.86#159.51#187.32
1203#13.83#24.87#49.78#75.96#107.11#129.37#165.65#180.86#201.27
1204#36.69#58.91#83.21#109.24#128.21#149.28#170.87#186.53#203.34
1205#17.42#41.71#66.36#87.07#113.53#135.21#153.18#173.19#199.5
1206#19.08#38.61#63.99#95.42#111.17#131.83#154.13#181.91#203.3
1207#22.06#44.71#69.75#86.64#101.51#127.75#154.07#176.89#194.7
1208#23.25#52.4#71.13#101.44#121.84#140.49#159.75#178.5#198.58
1209#21.25#41.34#59.11#83.79#105.02#142.51#165.03#178.32#196.86
1210#24.5#41.6#62.17#85.2#103.34#130.4#156.8#176.42#193.38
1211#26.77#41.71#66.61#81.62#102.65#133.79#149.25#171.56#195.79
1212#33.56#47.29#73.01#102.77#126.5#148.97#163.83#187.63#204.51
1213#12.35#31.31#55.62#77.03#101.45#127.68#144.94#163.85#201.02
1214#18.62#58.93#76.17#105.76#127.71#139.08#157.44#186.0#205.59
1215#17.62#47.23#77.09#92.83#119.67#144.03#161.41#175.87#193.25
1216#10.94#39.3#58.82#94.38#117.68#144.65#161.2#181.27#197.49
1217#35.83#58.87#83.53#103.72#126.09#149.71#169.0#182.19#195.15
1218#23.35#41.13#69.28#91.1#114.18#133.8#157.01#177.33#190.6
1219#21.41#41.67#75.34#98.42#121.85#140.11#153.16#174.81#190.83
1220#20.55#33.19#51.22#69.12#95.22#124.27#156.17#172.66#194.6
1221#21.76#43.11#71.54#109.1#132.12#147.95#166.44#183.77#201.19
1222#16.09#45.8#59.64#85.37#103.6#129.36#149.32#174.16#199.0
1223#14.14#41.75#55.92#79.03#100.76#129.54#154.88#172.66#193.1
1224#20.75#37.8#57.41#79.21#104.26#127.09#147.25#166.81#201.52
1225#12.89#35.62#57.44#74.45#94.67#118.25#147.2#177.41#199.72
1226#22.24#35.27#58.9#88.07#110.2#124.85#150.39#172.31#193.03
1227#19.12#50.17#71.89#93.6#114.31#132.81#148.98#168.56#196.26
1228#21.17#53.9#72.64#93.95#116.64#147.77#179.14#195.39#209.52
1229#21.14#34.97#57.6#84.14#112.13#138.3#160.3#176.89#199.29
1230#26.43#50.01#63.37#89.34#99.26#126.56#155.88#181.2#206.34
1231#18.11#31.81#57.39#81.53#102.85#134.67#159.94#181.33#196.47
1232#24.86#46.02#59.32#72.89#99.21#126.23#155.62#176.83#189.34
1233#12.99#31.89#56.69#77.48#101.69#133.87#154.84#172.81#199.07
1234#22.34#48.01#72.53#95.75#120.38#140.52#160.6#181.53#200.7

